solid OpenSCAD_Model
  facet normal -0.984808 0.173647 0
    outer loop
      vertex 0 0 0
      vertex 1.94022 11.0036 10
      vertex 1.94022 11.0036 0
    endloop
  endfacet
  facet normal -0.984808 0.173647 0
    outer loop
      vertex 1.94022 11.0036 10
      vertex 0 0 0
      vertex 0 0 10
    endloop
  endfacet
  facet normal 0 0 1
    outer loop
      vertex 12.2082 38.6663 10
      vertex 12.7234 36.3427 10
      vertex 12.6969 37.5558 10
    endloop
  endfacet
  facet normal 0 0 1
    outer loop
      vertex 11.3318 39.5053 10
      vertex 12.7234 36.3427 10
      vertex 12.2082 38.6663 10
    endloop
  endfacet
  facet normal 0 0 1
    outer loop
      vertex 10.201 39.9451 10
      vertex 12.7234 36.3427 10
      vertex 11.3318 39.5053 10
    endloop
  endfacet
  facet normal -0 0 1
    outer loop
      vertex 8.98795 39.9186 10
      vertex 12.7234 36.3427 10
      vertex 10.201 39.9451 10
    endloop
  endfacet
  facet normal -0 0 1
    outer loop
      vertex 6.59863 37.4227 10
      vertex 12.7234 36.3427 10
      vertex 8.98795 39.9186 10
    endloop
  endfacet
  facet normal 0 0 1
    outer loop
      vertex 6.59863 37.4227 10
      vertex 8.98795 39.9186 10
      vertex 7.8774 39.43 10
    endloop
  endfacet
  facet normal 0 0 1
    outer loop
      vertex 21.6596 38.6418 10
      vertex 22.1747 36.3182 10
      vertex 22.1482 37.5312 10
    endloop
  endfacet
  facet normal 0 0 1
    outer loop
      vertex 20.7831 39.4808 10
      vertex 22.1747 36.3182 10
      vertex 21.6596 38.6418 10
    endloop
  endfacet
  facet normal 0 0 1
    outer loop
      vertex 19.6523 39.9205 10
      vertex 22.1747 36.3182 10
      vertex 20.7831 39.4808 10
    endloop
  endfacet
  facet normal -0 0 1
    outer loop
      vertex 18.4393 39.894 10
      vertex 22.1747 36.3182 10
      vertex 19.6523 39.9205 10
    endloop
  endfacet
  facet normal -0 0 1
    outer loop
      vertex 17.3287 39.4054 10
      vertex 22.1747 36.3182 10
      vertex 18.4393 39.894 10
    endloop
  endfacet
  facet normal -0 0 1
    outer loop
      vertex 16.05 37.3981 10
      vertex 22.1747 36.3182 10
      vertex 17.3287 39.4054 10
    endloop
  endfacet
  facet normal 0 0 1
    outer loop
      vertex 16.05 37.3981 10
      vertex 17.3287 39.4054 10
      vertex 16.4897 38.5289 10
    endloop
  endfacet
  facet normal 0 0 1
    outer loop
      vertex 31.1109 38.6172 10
      vertex 31.626 36.2936 10
      vertex 31.5995 37.5066 10
    endloop
  endfacet
  facet normal 0 0 1
    outer loop
      vertex 30.2344 39.4562 10
      vertex 31.626 36.2936 10
      vertex 31.1109 38.6172 10
    endloop
  endfacet
  facet normal 0 0 1
    outer loop
      vertex 29.1036 39.896 10
      vertex 31.626 36.2936 10
      vertex 30.2344 39.4562 10
    endloop
  endfacet
  facet normal -0 0 1
    outer loop
      vertex 27.8906 39.8695 10
      vertex 31.626 36.2936 10
      vertex 29.1036 39.896 10
    endloop
  endfacet
  facet normal -0 0 1
    outer loop
      vertex 26.78 39.3808 10
      vertex 31.626 36.2936 10
      vertex 27.8906 39.8695 10
    endloop
  endfacet
  facet normal -0 0 1
    outer loop
      vertex 25.5013 37.3736 10
      vertex 31.626 36.2936 10
      vertex 26.78 39.3808 10
    endloop
  endfacet
  facet normal 0 0 1
    outer loop
      vertex 25.5013 37.3736 10
      vertex 26.78 39.3808 10
      vertex 25.941 38.5044 10
    endloop
  endfacet
  facet normal 0 0 1
    outer loop
      vertex 40.5622 38.5926 10
      vertex 41.0773 36.269 10
      vertex 41.0509 37.4821 10
    endloop
  endfacet
  facet normal 0 0 1
    outer loop
      vertex 39.6857 39.4316 10
      vertex 41.0773 36.269 10
      vertex 40.5622 38.5926 10
    endloop
  endfacet
  facet normal 0 0 1
    outer loop
      vertex 38.5549 39.8714 10
      vertex 41.0773 36.269 10
      vertex 39.6857 39.4316 10
    endloop
  endfacet
  facet normal -0 0 1
    outer loop
      vertex 37.3419 39.8449 10
      vertex 41.0773 36.269 10
      vertex 38.5549 39.8714 10
    endloop
  endfacet
  facet normal -0 0 1
    outer loop
      vertex 34.9526 37.349 10
      vertex 41.0773 36.269 10
      vertex 37.3419 39.8449 10
    endloop
  endfacet
  facet normal 0 0 1
    outer loop
      vertex 34.9526 37.349 10
      vertex 37.3419 39.8449 10
      vertex 36.2314 39.3563 10
    endloop
  endfacet
  facet normal -0 0 1
    outer loop
      vertex 44.4039 37.3244 10
      vertex 50.5286 36.2445 10
      vertex 44.8437 38.4552 10
    endloop
  endfacet
  facet normal 0 0 1
    outer loop
      vertex 39.4919 9.46684 10
      vertex 50.5286 36.2445 10
      vertex 44.4039 37.3244 10
    endloop
  endfacet
  facet normal 0 0 1
    outer loop
      vertex 50.5286 36.2445 10
      vertex 39.4919 9.46684 10
      vertex 45.3192 6.70024 10
    endloop
  endfacet
  facet normal 0 0 1
    outer loop
      vertex 45.3192 6.70024 10
      vertex 39.4919 9.46684 10
      vertex 44.1378 0 10
    endloop
  endfacet
  facet normal -0 0 1
    outer loop
      vertex 37.927 9.18006 10
      vertex 44.1378 0 10
      vertex 39.4919 9.46684 10
    endloop
  endfacet
  facet normal -0 0 1
    outer loop
      vertex 36.2541 8.9151 10
      vertex 44.1378 0 10
      vertex 37.927 9.18006 10
    endloop
  endfacet
  facet normal 0 0 1
    outer loop
      vertex 34.9526 37.349 10
      vertex 36.2314 39.3563 10
      vertex 35.3923 38.4798 10
    endloop
  endfacet
  facet normal 0 0 1
    outer loop
      vertex 41.0773 36.269 10
      vertex 34.9526 37.349 10
      vertex 36.2541 8.9151 10
    endloop
  endfacet
  facet normal 0 0 1
    outer loop
      vertex 29.8139 8.2061 10
      vertex 36.2541 8.9151 10
      vertex 34.9526 37.349 10
    endloop
  endfacet
  facet normal -0 0 1
    outer loop
      vertex 29.8139 8.2061 10
      vertex 44.1378 0 10
      vertex 36.2541 8.9151 10
    endloop
  endfacet
  facet normal -0 0 1
    outer loop
      vertex 28.0027 8.09654 10
      vertex 44.1378 0 10
      vertex 29.8139 8.2061 10
    endloop
  endfacet
  facet normal -0 0 1
    outer loop
      vertex 26.6454 8.04732 10
      vertex 44.1378 0 10
      vertex 28.0027 8.09654 10
    endloop
  endfacet
  facet normal 0 0 1
    outer loop
      vertex 31.626 36.2936 10
      vertex 25.5013 37.3736 10
      vertex 26.6454 8.04732 10
    endloop
  endfacet
  facet normal -0 0 1
    outer loop
      vertex 20.3369 8.08484 10
      vertex 26.6454 8.04732 10
      vertex 25.5013 37.3736 10
    endloop
  endfacet
  facet normal 0 0 1
    outer loop
      vertex 20.3369 8.08484 10
      vertex 44.1378 0 10
      vertex 26.6454 8.04732 10
    endloop
  endfacet
  facet normal 0 0 1
    outer loop
      vertex 0 0 10
      vertex 20.3369 8.08484 10
      vertex 20.0143 8.09654 10
    endloop
  endfacet
  facet normal 0 0 1
    outer loop
      vertex 0 0 10
      vertex 20.0143 8.09654 10
      vertex 18.0201 8.21717 10
    endloop
  endfacet
  facet normal 0 0 1
    outer loop
      vertex 0 0 10
      vertex 18.0201 8.21717 10
      vertex 17.2315 8.28403 10
    endloop
  endfacet
  facet normal 0 0 1
    outer loop
      vertex 22.1747 36.3182 10
      vertex 16.05 37.3981 10
      vertex 17.2315 8.28403 10
    endloop
  endfacet
  facet normal -0 0 1
    outer loop
      vertex 11.0476 9.02839 10
      vertex 17.2315 8.28403 10
      vertex 16.05 37.3981 10
    endloop
  endfacet
  facet normal 0 0 1
    outer loop
      vertex 0 0 10
      vertex 17.2315 8.28403 10
      vertex 11.0476 9.02839 10
    endloop
  endfacet
  facet normal 0 0 1
    outer loop
      vertex 0 0 10
      vertex 11.0476 9.02839 10
      vertex 10.09 9.18006 10
    endloop
  endfacet
  facet normal 0 0 1
    outer loop
      vertex 0 0 10
      vertex 10.09 9.18006 10
      vertex 8.12486 9.54018 10
    endloop
  endfacet
  facet normal 0 0 1
    outer loop
      vertex 0 0 10
      vertex 8.12486 9.54018 10
      vertex 8.00187 9.56581 10
    endloop
  endfacet
  facet normal 0 0 1
    outer loop
      vertex 6.59863 37.4227 10
      vertex 7.8774 39.43 10
      vertex 7.03838 38.5535 10
    endloop
  endfacet
  facet normal 0 0 1
    outer loop
      vertex 1.94022 11.0036 10
      vertex 12.7234 36.3427 10
      vertex 6.59863 37.4227 10
    endloop
  endfacet
  facet normal 0 0 1
    outer loop
      vertex 12.7234 36.3427 10
      vertex 1.94022 11.0036 10
      vertex 8.00187 9.56581 10
    endloop
  endfacet
  facet normal 0 0 1
    outer loop
      vertex 0 0 10
      vertex 8.00187 9.56581 10
      vertex 1.94022 11.0036 10
    endloop
  endfacet
  facet normal 0 0 1
    outer loop
      vertex 20.3369 8.08484 10
      vertex 0 0 10
      vertex 44.1378 0 10
    endloop
  endfacet
  facet normal 0 0 1
    outer loop
      vertex 50.0135 38.5681 10
      vertex 50.5286 36.2445 10
      vertex 50.5022 37.4575 10
    endloop
  endfacet
  facet normal 0 0 1
    outer loop
      vertex 49.1371 39.4071 10
      vertex 50.5286 36.2445 10
      vertex 50.0135 38.5681 10
    endloop
  endfacet
  facet normal 0 0 1
    outer loop
      vertex 48.0063 39.8468 10
      vertex 50.5286 36.2445 10
      vertex 49.1371 39.4071 10
    endloop
  endfacet
  facet normal -0 0 1
    outer loop
      vertex 46.7932 39.8204 10
      vertex 50.5286 36.2445 10
      vertex 48.0063 39.8468 10
    endloop
  endfacet
  facet normal -0 0 1
    outer loop
      vertex 45.6827 39.3317 10
      vertex 50.5286 36.2445 10
      vertex 46.7932 39.8204 10
    endloop
  endfacet
  facet normal -0 0 1
    outer loop
      vertex 44.8437 38.4552 10
      vertex 50.5286 36.2445 10
      vertex 45.6827 39.3317 10
    endloop
  endfacet
  facet normal 0.984809 -0.173643 0
    outer loop
      vertex 44.1378 0 10
      vertex 45.3192 6.70024 0
      vertex 45.3192 6.70024 10
    endloop
  endfacet
  facet normal 0.984809 -0.173643 0
    outer loop
      vertex 45.3192 6.70024 0
      vertex 44.1378 0 10
      vertex 44.1378 0 0
    endloop
  endfacet
  facet normal 0 0 -1
    outer loop
      vertex 50.5286 36.2445 0
      vertex 50.0135 38.5681 0
      vertex 50.5022 37.4575 0
    endloop
  endfacet
  facet normal 0 0 -1
    outer loop
      vertex 50.5286 36.2445 0
      vertex 49.1371 39.4071 0
      vertex 50.0135 38.5681 0
    endloop
  endfacet
  facet normal 0 0 -1
    outer loop
      vertex 50.5286 36.2445 0
      vertex 48.0063 39.8468 0
      vertex 49.1371 39.4071 0
    endloop
  endfacet
  facet normal 0 0 -1
    outer loop
      vertex 50.5286 36.2445 0
      vertex 46.7932 39.8204 0
      vertex 48.0063 39.8468 0
    endloop
  endfacet
  facet normal 0 0 -1
    outer loop
      vertex 50.5286 36.2445 0
      vertex 45.6827 39.3317 0
      vertex 46.7932 39.8204 0
    endloop
  endfacet
  facet normal 0 0 -1
    outer loop
      vertex 39.4919 9.46684 0
      vertex 50.5286 36.2445 0
      vertex 45.3192 6.70024 0
    endloop
  endfacet
  facet normal 0 0 -1
    outer loop
      vertex 50.5286 36.2445 0
      vertex 44.4039 37.3244 0
      vertex 45.6827 39.3317 0
    endloop
  endfacet
  facet normal 0 0 -1
    outer loop
      vertex 45.6827 39.3317 0
      vertex 44.4039 37.3244 0
      vertex 44.8437 38.4552 0
    endloop
  endfacet
  facet normal 0 0 -1
    outer loop
      vertex 39.4919 9.46684 0
      vertex 45.3192 6.70024 0
      vertex 44.1378 0 0
    endloop
  endfacet
  facet normal -0 0 -1
    outer loop
      vertex 50.5286 36.2445 0
      vertex 39.4919 9.46684 0
      vertex 44.4039 37.3244 0
    endloop
  endfacet
  facet normal 0 0 -1
    outer loop
      vertex 44.1378 0 0
      vertex 37.927 9.18006 0
      vertex 39.4919 9.46684 0
    endloop
  endfacet
  facet normal 0 0 -1
    outer loop
      vertex 44.1378 0 0
      vertex 36.2541 8.9151 0
      vertex 37.927 9.18006 0
    endloop
  endfacet
  facet normal 0 0 -1
    outer loop
      vertex 41.0773 36.269 0
      vertex 35.3923 38.4798 0
      vertex 36.2314 39.3563 0
    endloop
  endfacet
  facet normal 0 0 -1
    outer loop
      vertex 41.0773 36.269 0
      vertex 34.9526 37.349 0
      vertex 35.3923 38.4798 0
    endloop
  endfacet
  facet normal -0 0 -1
    outer loop
      vertex 36.2541 8.9151 0
      vertex 29.8139 8.2061 0
      vertex 34.9526 37.349 0
    endloop
  endfacet
  facet normal 0 0 -1
    outer loop
      vertex 44.1378 0 0
      vertex 29.8139 8.2061 0
      vertex 36.2541 8.9151 0
    endloop
  endfacet
  facet normal 0 0 -1
    outer loop
      vertex 44.1378 0 0
      vertex 28.0027 8.09654 0
      vertex 29.8139 8.2061 0
    endloop
  endfacet
  facet normal 0 0 -1
    outer loop
      vertex 44.1378 0 0
      vertex 26.6454 8.04732 0
      vertex 28.0027 8.09654 0
    endloop
  endfacet
  facet normal 0 0 -1
    outer loop
      vertex 31.626 36.2936 0
      vertex 25.5013 37.3736 0
      vertex 25.941 38.5044 0
    endloop
  endfacet
  facet normal 0 0 -1
    outer loop
      vertex 26.6454 8.04732 0
      vertex 20.3369 8.08484 0
      vertex 25.5013 37.3736 0
    endloop
  endfacet
  facet normal 0 0 -1
    outer loop
      vertex 44.1378 0 0
      vertex 20.3369 8.08484 0
      vertex 26.6454 8.04732 0
    endloop
  endfacet
  facet normal 0 0 -1
    outer loop
      vertex 0 0 0
      vertex 20.3369 8.08484 0
      vertex 44.1378 0 0
    endloop
  endfacet
  facet normal -0 0 -1
    outer loop
      vertex 20.3369 8.08484 0
      vertex 0 0 0
      vertex 20.0143 8.09654 0
    endloop
  endfacet
  facet normal -0 0 -1
    outer loop
      vertex 20.0143 8.09654 0
      vertex 0 0 0
      vertex 18.0201 8.21717 0
    endloop
  endfacet
  facet normal 0 0 -1
    outer loop
      vertex 22.1747 36.3182 0
      vertex 16.05 37.3981 0
      vertex 16.4897 38.5289 0
    endloop
  endfacet
  facet normal 0 0 -1
    outer loop
      vertex 17.2315 8.28403 0
      vertex 11.0476 9.02839 0
      vertex 16.05 37.3981 0
    endloop
  endfacet
  facet normal -0 0 -1
    outer loop
      vertex 18.0201 8.21717 0
      vertex 0 0 0
      vertex 17.2315 8.28403 0
    endloop
  endfacet
  facet normal -0 0 -1
    outer loop
      vertex 17.2315 8.28403 0
      vertex 0 0 0
      vertex 11.0476 9.02839 0
    endloop
  endfacet
  facet normal -0 0 -1
    outer loop
      vertex 11.0476 9.02839 0
      vertex 0 0 0
      vertex 10.09 9.18006 0
    endloop
  endfacet
  facet normal -0 0 -1
    outer loop
      vertex 10.09 9.18006 0
      vertex 0 0 0
      vertex 8.12486 9.54018 0
    endloop
  endfacet
  facet normal 0 0 -1
    outer loop
      vertex 12.7234 36.3427 0
      vertex 7.03838 38.5535 0
      vertex 7.8774 39.43 0
    endloop
  endfacet
  facet normal 0 0 -1
    outer loop
      vertex 12.7234 36.3427 0
      vertex 6.59863 37.4227 0
      vertex 7.03838 38.5535 0
    endloop
  endfacet
  facet normal -0 0 -1
    outer loop
      vertex 12.7234 36.3427 0
      vertex 1.94022 11.0036 0
      vertex 6.59863 37.4227 0
    endloop
  endfacet
  facet normal -0 0 -1
    outer loop
      vertex 8.12486 9.54018 0
      vertex 0 0 0
      vertex 8.00187 9.56581 0
    endloop
  endfacet
  facet normal -0 0 -1
    outer loop
      vertex 8.00187 9.56581 0
      vertex 0 0 0
      vertex 1.94022 11.0036 0
    endloop
  endfacet
  facet normal 0 0 -1
    outer loop
      vertex 41.0773 36.269 0
      vertex 40.5622 38.5926 0
      vertex 41.0509 37.4821 0
    endloop
  endfacet
  facet normal 0 0 -1
    outer loop
      vertex 41.0773 36.269 0
      vertex 39.6857 39.4316 0
      vertex 40.5622 38.5926 0
    endloop
  endfacet
  facet normal 0 0 -1
    outer loop
      vertex 41.0773 36.269 0
      vertex 38.5549 39.8714 0
      vertex 39.6857 39.4316 0
    endloop
  endfacet
  facet normal 0 0 -1
    outer loop
      vertex 41.0773 36.269 0
      vertex 37.3419 39.8449 0
      vertex 38.5549 39.8714 0
    endloop
  endfacet
  facet normal 0 0 -1
    outer loop
      vertex 34.9526 37.349 0
      vertex 41.0773 36.269 0
      vertex 36.2541 8.9151 0
    endloop
  endfacet
  facet normal 0 0 -1
    outer loop
      vertex 41.0773 36.269 0
      vertex 36.2314 39.3563 0
      vertex 37.3419 39.8449 0
    endloop
  endfacet
  facet normal 0 0 -1
    outer loop
      vertex 31.626 36.2936 0
      vertex 31.1109 38.6172 0
      vertex 31.5995 37.5066 0
    endloop
  endfacet
  facet normal 0 0 -1
    outer loop
      vertex 31.626 36.2936 0
      vertex 30.2344 39.4562 0
      vertex 31.1109 38.6172 0
    endloop
  endfacet
  facet normal 0 0 -1
    outer loop
      vertex 31.626 36.2936 0
      vertex 29.1036 39.896 0
      vertex 30.2344 39.4562 0
    endloop
  endfacet
  facet normal 0 0 -1
    outer loop
      vertex 31.626 36.2936 0
      vertex 27.8906 39.8695 0
      vertex 29.1036 39.896 0
    endloop
  endfacet
  facet normal 0 0 -1
    outer loop
      vertex 31.626 36.2936 0
      vertex 26.78 39.3808 0
      vertex 27.8906 39.8695 0
    endloop
  endfacet
  facet normal 0 0 -1
    outer loop
      vertex 25.5013 37.3736 0
      vertex 31.626 36.2936 0
      vertex 26.6454 8.04732 0
    endloop
  endfacet
  facet normal 0 0 -1
    outer loop
      vertex 31.626 36.2936 0
      vertex 25.941 38.5044 0
      vertex 26.78 39.3808 0
    endloop
  endfacet
  facet normal 0 0 -1
    outer loop
      vertex 22.1747 36.3182 0
      vertex 21.6596 38.6418 0
      vertex 22.1482 37.5312 0
    endloop
  endfacet
  facet normal 0 0 -1
    outer loop
      vertex 22.1747 36.3182 0
      vertex 20.7831 39.4808 0
      vertex 21.6596 38.6418 0
    endloop
  endfacet
  facet normal 0 0 -1
    outer loop
      vertex 22.1747 36.3182 0
      vertex 19.6523 39.9205 0
      vertex 20.7831 39.4808 0
    endloop
  endfacet
  facet normal 0 0 -1
    outer loop
      vertex 22.1747 36.3182 0
      vertex 18.4393 39.894 0
      vertex 19.6523 39.9205 0
    endloop
  endfacet
  facet normal 0 0 -1
    outer loop
      vertex 22.1747 36.3182 0
      vertex 17.3287 39.4054 0
      vertex 18.4393 39.894 0
    endloop
  endfacet
  facet normal 0 0 -1
    outer loop
      vertex 16.05 37.3981 0
      vertex 22.1747 36.3182 0
      vertex 17.2315 8.28403 0
    endloop
  endfacet
  facet normal 0 0 -1
    outer loop
      vertex 22.1747 36.3182 0
      vertex 16.4897 38.5289 0
      vertex 17.3287 39.4054 0
    endloop
  endfacet
  facet normal 0 0 -1
    outer loop
      vertex 12.7234 36.3427 0
      vertex 12.2082 38.6663 0
      vertex 12.6969 37.5558 0
    endloop
  endfacet
  facet normal 0 0 -1
    outer loop
      vertex 12.7234 36.3427 0
      vertex 11.3318 39.5053 0
      vertex 12.2082 38.6663 0
    endloop
  endfacet
  facet normal 0 0 -1
    outer loop
      vertex 12.7234 36.3427 0
      vertex 10.201 39.9451 0
      vertex 11.3318 39.5053 0
    endloop
  endfacet
  facet normal 0 0 -1
    outer loop
      vertex 12.7234 36.3427 0
      vertex 8.98795 39.9186 0
      vertex 10.201 39.9451 0
    endloop
  endfacet
  facet normal 0 0 -1
    outer loop
      vertex 1.94022 11.0036 0
      vertex 12.7234 36.3427 0
      vertex 8.00187 9.56581 0
    endloop
  endfacet
  facet normal 0 0 -1
    outer loop
      vertex 12.7234 36.3427 0
      vertex 7.8774 39.43 0
      vertex 8.98795 39.9186 0
    endloop
  endfacet
  facet normal -0.0362393 0.999343 0
    outer loop
      vertex 28.0027 8.09654 0
      vertex 26.6454 8.04732 10
      vertex 28.0027 8.09654 10
    endloop
  endfacet
  facet normal -0.0362393 0.999343 0
    outer loop
      vertex 26.6454 8.04732 10
      vertex 28.0027 8.09654 0
      vertex 26.6454 8.04732 0
    endloop
  endfacet
  facet normal -0.180256 0.98362 0
    outer loop
      vertex 39.4919 9.46684 0
      vertex 37.927 9.18006 10
      vertex 39.4919 9.46684 10
    endloop
  endfacet
  facet normal -0.180256 0.98362 0
    outer loop
      vertex 37.927 9.18006 10
      vertex 39.4919 9.46684 0
      vertex 37.927 9.18006 0
    endloop
  endfacet
  facet normal 0.204008 0.978969 -0
    outer loop
      vertex 8.12486 9.54018 0
      vertex 8.00187 9.56581 10
      vertex 8.12486 9.54018 10
    endloop
  endfacet
  facet normal 0.204008 0.978969 0
    outer loop
      vertex 8.00187 9.56581 10
      vertex 8.12486 9.54018 0
      vertex 8.00187 9.56581 0
    endloop
  endfacet
  facet normal 0.156436 0.987688 -0
    outer loop
      vertex 11.0476 9.02839 0
      vertex 10.09 9.18006 10
      vertex 11.0476 9.02839 10
    endloop
  endfacet
  facet normal 0.156436 0.987688 0
    outer loop
      vertex 10.09 9.18006 10
      vertex 11.0476 9.02839 0
      vertex 10.09 9.18006 0
    endloop
  endfacet
  facet normal 0.0603801 0.998175 -0
    outer loop
      vertex 20.0143 8.09654 0
      vertex 18.0201 8.21717 10
      vertex 20.0143 8.09654 10
    endloop
  endfacet
  facet normal 0.0603801 0.998175 0
    outer loop
      vertex 18.0201 8.21717 10
      vertex 20.0143 8.09654 0
      vertex 18.0201 8.21717 0
    endloop
  endfacet
  facet normal -0.0603799 0.998175 0
    outer loop
      vertex 29.8139 8.2061 0
      vertex 28.0027 8.09654 10
      vertex 29.8139 8.2061 10
    endloop
  endfacet
  facet normal -0.0603799 0.998175 0
    outer loop
      vertex 28.0027 8.09654 10
      vertex 29.8139 8.2061 0
      vertex 28.0027 8.09654 0
    endloop
  endfacet
  facet normal -0.156434 0.987688 0
    outer loop
      vertex 37.927 9.18006 0
      vertex 36.2541 8.9151 10
      vertex 37.927 9.18006 10
    endloop
  endfacet
  facet normal -0.156434 0.987688 0
    outer loop
      vertex 36.2541 8.9151 10
      vertex 37.927 9.18006 0
      vertex 36.2541 8.9151 0
    endloop
  endfacet
  facet normal 0.180252 0.98362 -0
    outer loop
      vertex 10.09 9.18006 0
      vertex 8.12486 9.54018 10
      vertex 10.09 9.18006 10
    endloop
  endfacet
  facet normal 0.180252 0.98362 0
    outer loop
      vertex 8.12486 9.54018 10
      vertex 10.09 9.18006 0
      vertex 8.12486 9.54018 0
    endloop
  endfacet
  facet normal 0.0844801 0.996425 -0
    outer loop
      vertex 18.0201 8.21717 0
      vertex 17.2315 8.28403 10
      vertex 18.0201 8.21717 10
    endloop
  endfacet
  facet normal 0.0844801 0.996425 0
    outer loop
      vertex 17.2315 8.28403 10
      vertex 18.0201 8.21717 0
      vertex 17.2315 8.28403 0
    endloop
  endfacet
  facet normal 0.036244 0.999343 -0
    outer loop
      vertex 20.3369 8.08484 0
      vertex 20.0143 8.09654 10
      vertex 20.3369 8.08484 10
    endloop
  endfacet
  facet normal 0.036244 0.999343 0
    outer loop
      vertex 20.0143 8.09654 10
      vertex 20.3369 8.08484 0
      vertex 20.0143 8.09654 0
    endloop
  endfacet
  facet normal 0 -1 0
    outer loop
      vertex 0 0 0
      vertex 44.1378 0 10
      vertex 0 0 10
    endloop
  endfacet
  facet normal 0 -1 -0
    outer loop
      vertex 44.1378 0 10
      vertex 0 0 0
      vertex 44.1378 0 0
    endloop
  endfacet
  facet normal -0.984808 0.173649 0
    outer loop
      vertex 1.94022 11.0036 0
      vertex 6.59863 37.4227 10
      vertex 6.59863 37.4227 0
    endloop
  endfacet
  facet normal -0.984808 0.173649 0
    outer loop
      vertex 6.59863 37.4227 10
      vertex 1.94022 11.0036 0
      vertex 1.94022 11.0036 10
    endloop
  endfacet
  facet normal 0.984807 -0.17365 0
    outer loop
      vertex 8.00187 9.56581 10
      vertex 12.7234 36.3427 0
      vertex 12.7234 36.3427 10
    endloop
  endfacet
  facet normal 0.984807 -0.17365 0
    outer loop
      vertex 12.7234 36.3427 0
      vertex 8.00187 9.56581 10
      vertex 8.00187 9.56581 0
    endloop
  endfacet
  facet normal 0.999761 0.0218396 0
    outer loop
      vertex 12.7234 36.3427 10
      vertex 12.6969 37.5558 0
      vertex 12.6969 37.5558 10
    endloop
  endfacet
  facet normal 0.999761 0.0218396 0
    outer loop
      vertex 12.6969 37.5558 0
      vertex 12.7234 36.3427 10
      vertex 12.7234 36.3427 0
    endloop
  endfacet
  facet normal -0.0218405 0.999761 0
    outer loop
      vertex 10.201 39.9451 0
      vertex 8.98795 39.9186 10
      vertex 10.201 39.9451 10
    endloop
  endfacet
  facet normal -0.0218405 0.999761 0
    outer loop
      vertex 8.98795 39.9186 10
      vertex 10.201 39.9451 0
      vertex 8.98795 39.9186 0
    endloop
  endfacet
  facet normal 0.691526 0.722352 -0
    outer loop
      vertex 12.2082 38.6663 0
      vertex 11.3318 39.5053 10
      vertex 12.2082 38.6663 10
    endloop
  endfacet
  facet normal 0.691526 0.722352 0
    outer loop
      vertex 11.3318 39.5053 10
      vertex 12.2082 38.6663 0
      vertex 11.3318 39.5053 0
    endloop
  endfacet
  facet normal 0.915291 0.402794 0
    outer loop
      vertex 12.6969 37.5558 10
      vertex 12.2082 38.6663 0
      vertex 12.2082 38.6663 10
    endloop
  endfacet
  facet normal 0.915291 0.402794 0
    outer loop
      vertex 12.2082 38.6663 0
      vertex 12.6969 37.5558 10
      vertex 12.6969 37.5558 0
    endloop
  endfacet
  facet normal 0.362478 0.931992 -0
    outer loop
      vertex 11.3318 39.5053 0
      vertex 10.201 39.9451 10
      vertex 11.3318 39.5053 10
    endloop
  endfacet
  facet normal 0.362478 0.931992 0
    outer loop
      vertex 10.201 39.9451 10
      vertex 11.3318 39.5053 0
      vertex 10.201 39.9451 0
    endloop
  endfacet
  facet normal -0.722383 0.691493 0
    outer loop
      vertex 7.03838 38.5535 0
      vertex 7.8774 39.43 10
      vertex 7.8774 39.43 0
    endloop
  endfacet
  facet normal -0.722383 0.691493 0
    outer loop
      vertex 7.8774 39.43 10
      vertex 7.03838 38.5535 0
      vertex 7.03838 38.5535 10
    endloop
  endfacet
  facet normal -0.932006 0.362442 0
    outer loop
      vertex 6.59863 37.4227 0
      vertex 7.03838 38.5535 10
      vertex 7.03838 38.5535 0
    endloop
  endfacet
  facet normal -0.932006 0.362442 0
    outer loop
      vertex 7.03838 38.5535 10
      vertex 6.59863 37.4227 0
      vertex 6.59863 37.4227 10
    endloop
  endfacet
  facet normal -0.40271 0.915328 0
    outer loop
      vertex 8.98795 39.9186 0
      vertex 7.8774 39.43 10
      vertex 8.98795 39.9186 10
    endloop
  endfacet
  facet normal -0.40271 0.915328 0
    outer loop
      vertex 7.8774 39.43 10
      vertex 8.98795 39.9186 0
      vertex 7.8774 39.43 0
    endloop
  endfacet
  facet normal -0.984807 0.17365 0
    outer loop
      vertex 11.0476 9.02839 0
      vertex 16.05 37.3981 10
      vertex 16.05 37.3981 0
    endloop
  endfacet
  facet normal -0.984807 0.17365 0
    outer loop
      vertex 16.05 37.3981 10
      vertex 11.0476 9.02839 0
      vertex 11.0476 9.02839 10
    endloop
  endfacet
  facet normal 0.984808 -0.173649 0
    outer loop
      vertex 17.2315 8.28403 10
      vertex 22.1747 36.3182 0
      vertex 22.1747 36.3182 10
    endloop
  endfacet
  facet normal 0.984808 -0.173649 0
    outer loop
      vertex 22.1747 36.3182 0
      vertex 17.2315 8.28403 10
      vertex 17.2315 8.28403 0
    endloop
  endfacet
  facet normal 0.999761 0.0218414 0
    outer loop
      vertex 22.1747 36.3182 10
      vertex 22.1482 37.5312 0
      vertex 22.1482 37.5312 10
    endloop
  endfacet
  facet normal 0.999761 0.0218414 0
    outer loop
      vertex 22.1482 37.5312 0
      vertex 22.1747 36.3182 10
      vertex 22.1747 36.3182 0
    endloop
  endfacet
  facet normal 0.362406 0.93202 -0
    outer loop
      vertex 20.7831 39.4808 0
      vertex 19.6523 39.9205 10
      vertex 20.7831 39.4808 10
    endloop
  endfacet
  facet normal 0.362406 0.93202 0
    outer loop
      vertex 19.6523 39.9205 10
      vertex 20.7831 39.4808 0
      vertex 19.6523 39.9205 0
    endloop
  endfacet
  facet normal 0.691485 0.722391 -0
    outer loop
      vertex 21.6596 38.6418 0
      vertex 20.7831 39.4808 10
      vertex 21.6596 38.6418 10
    endloop
  endfacet
  facet normal 0.691485 0.722391 0
    outer loop
      vertex 20.7831 39.4808 10
      vertex 21.6596 38.6418 0
      vertex 20.7831 39.4808 0
    endloop
  endfacet
  facet normal 0.915334 0.402694 0
    outer loop
      vertex 22.1482 37.5312 10
      vertex 21.6596 38.6418 0
      vertex 21.6596 38.6418 10
    endloop
  endfacet
  facet normal 0.915334 0.402694 0
    outer loop
      vertex 21.6596 38.6418 0
      vertex 22.1482 37.5312 10
      vertex 22.1482 37.5312 0
    endloop
  endfacet
  facet normal -0.0218414 0.999761 0
    outer loop
      vertex 19.6523 39.9205 0
      vertex 18.4393 39.894 10
      vertex 19.6523 39.9205 10
    endloop
  endfacet
  facet normal -0.0218414 0.999761 0
    outer loop
      vertex 18.4393 39.894 10
      vertex 19.6523 39.9205 0
      vertex 18.4393 39.894 0
    endloop
  endfacet
  facet normal -0.402694 0.915334 0
    outer loop
      vertex 18.4393 39.894 0
      vertex 17.3287 39.4054 10
      vertex 18.4393 39.894 10
    endloop
  endfacet
  facet normal -0.402694 0.915334 0
    outer loop
      vertex 17.3287 39.4054 10
      vertex 18.4393 39.894 0
      vertex 17.3287 39.4054 0
    endloop
  endfacet
  facet normal -0.722391 0.691485 0
    outer loop
      vertex 16.4897 38.5289 0
      vertex 17.3287 39.4054 10
      vertex 17.3287 39.4054 0
    endloop
  endfacet
  facet normal -0.722391 0.691485 0
    outer loop
      vertex 17.3287 39.4054 10
      vertex 16.4897 38.5289 0
      vertex 16.4897 38.5289 10
    endloop
  endfacet
  facet normal -0.93202 0.362406 0
    outer loop
      vertex 16.05 37.3981 0
      vertex 16.4897 38.5289 10
      vertex 16.4897 38.5289 0
    endloop
  endfacet
  facet normal -0.93202 0.362406 0
    outer loop
      vertex 16.4897 38.5289 10
      vertex 16.05 37.3981 0
      vertex 16.05 37.3981 10
    endloop
  endfacet
  facet normal -0.984808 0.173648 0
    outer loop
      vertex 20.3369 8.08484 0
      vertex 25.5013 37.3736 10
      vertex 25.5013 37.3736 0
    endloop
  endfacet
  facet normal -0.984808 0.173648 0
    outer loop
      vertex 25.5013 37.3736 10
      vertex 20.3369 8.08484 0
      vertex 20.3369 8.08484 10
    endloop
  endfacet
  facet normal 0.984808 -0.173649 0
    outer loop
      vertex 26.6454 8.04732 10
      vertex 31.626 36.2936 0
      vertex 31.626 36.2936 10
    endloop
  endfacet
  facet normal 0.984808 -0.173649 0
    outer loop
      vertex 31.626 36.2936 0
      vertex 26.6454 8.04732 10
      vertex 26.6454 8.04732 0
    endloop
  endfacet
  facet normal 0.999761 0.0218414 0
    outer loop
      vertex 31.626 36.2936 10
      vertex 31.5995 37.5066 0
      vertex 31.5995 37.5066 10
    endloop
  endfacet
  facet normal 0.999761 0.0218414 0
    outer loop
      vertex 31.5995 37.5066 0
      vertex 31.626 36.2936 10
      vertex 31.626 36.2936 0
    endloop
  endfacet
  facet normal 0.362478 0.931992 -0
    outer loop
      vertex 30.2344 39.4562 0
      vertex 29.1036 39.896 10
      vertex 30.2344 39.4562 10
    endloop
  endfacet
  facet normal 0.362478 0.931992 0
    outer loop
      vertex 29.1036 39.896 10
      vertex 30.2344 39.4562 0
      vertex 29.1036 39.896 0
    endloop
  endfacet
  facet normal 0.691485 0.722391 -0
    outer loop
      vertex 31.1109 38.6172 0
      vertex 30.2344 39.4562 10
      vertex 31.1109 38.6172 10
    endloop
  endfacet
  facet normal 0.691485 0.722391 0
    outer loop
      vertex 30.2344 39.4562 10
      vertex 31.1109 38.6172 0
      vertex 30.2344 39.4562 0
    endloop
  endfacet
  facet normal 0.915334 0.402694 0
    outer loop
      vertex 31.5995 37.5066 10
      vertex 31.1109 38.6172 0
      vertex 31.1109 38.6172 10
    endloop
  endfacet
  facet normal 0.915334 0.402694 0
    outer loop
      vertex 31.1109 38.6172 0
      vertex 31.5995 37.5066 10
      vertex 31.5995 37.5066 0
    endloop
  endfacet
  facet normal -0.0218414 0.999761 0
    outer loop
      vertex 29.1036 39.896 0
      vertex 27.8906 39.8695 10
      vertex 29.1036 39.896 10
    endloop
  endfacet
  facet normal -0.0218414 0.999761 0
    outer loop
      vertex 27.8906 39.8695 10
      vertex 29.1036 39.896 0
      vertex 27.8906 39.8695 0
    endloop
  endfacet
  facet normal -0.402763 0.915304 0
    outer loop
      vertex 27.8906 39.8695 0
      vertex 26.78 39.3808 10
      vertex 27.8906 39.8695 10
    endloop
  endfacet
  facet normal -0.402763 0.915304 0
    outer loop
      vertex 26.78 39.3808 10
      vertex 27.8906 39.8695 0
      vertex 26.78 39.3808 0
    endloop
  endfacet
  facet normal -0.722352 0.691526 0
    outer loop
      vertex 25.941 38.5044 0
      vertex 26.78 39.3808 10
      vertex 26.78 39.3808 0
    endloop
  endfacet
  facet normal -0.722352 0.691526 0
    outer loop
      vertex 26.78 39.3808 10
      vertex 25.941 38.5044 0
      vertex 25.941 38.5044 10
    endloop
  endfacet
  facet normal -0.93202 0.362406 0
    outer loop
      vertex 25.5013 37.3736 0
      vertex 25.941 38.5044 10
      vertex 25.941 38.5044 0
    endloop
  endfacet
  facet normal -0.93202 0.362406 0
    outer loop
      vertex 25.941 38.5044 10
      vertex 25.5013 37.3736 0
      vertex 25.5013 37.3736 10
    endloop
  endfacet
  facet normal -0.984808 0.173649 0
    outer loop
      vertex 29.8139 8.2061 0
      vertex 34.9526 37.349 10
      vertex 34.9526 37.349 0
    endloop
  endfacet
  facet normal -0.984808 0.173649 0
    outer loop
      vertex 34.9526 37.349 10
      vertex 29.8139 8.2061 0
      vertex 29.8139 8.2061 10
    endloop
  endfacet
  facet normal 0.984808 -0.173647 0
    outer loop
      vertex 36.2541 8.9151 10
      vertex 41.0773 36.269 0
      vertex 41.0773 36.269 10
    endloop
  endfacet
  facet normal 0.984808 -0.173647 0
    outer loop
      vertex 41.0773 36.269 0
      vertex 36.2541 8.9151 10
      vertex 36.2541 8.9151 0
    endloop
  endfacet
  facet normal 0.999763 0.0217573 0
    outer loop
      vertex 41.0773 36.269 10
      vertex 41.0509 37.4821 0
      vertex 41.0509 37.4821 10
    endloop
  endfacet
  facet normal 0.999763 0.0217573 0
    outer loop
      vertex 41.0509 37.4821 0
      vertex 41.0773 36.269 10
      vertex 41.0773 36.269 0
    endloop
  endfacet
  facet normal -0.0218414 0.999761 0
    outer loop
      vertex 38.5549 39.8714 0
      vertex 37.3419 39.8449 10
      vertex 38.5549 39.8714 10
    endloop
  endfacet
  facet normal -0.0218414 0.999761 0
    outer loop
      vertex 37.3419 39.8449 10
      vertex 38.5549 39.8714 0
      vertex 37.3419 39.8449 0
    endloop
  endfacet
  facet normal 0.691485 0.722391 -0
    outer loop
      vertex 40.5622 38.5926 0
      vertex 39.6857 39.4316 10
      vertex 40.5622 38.5926 10
    endloop
  endfacet
  facet normal 0.691485 0.722391 0
    outer loop
      vertex 39.6857 39.4316 10
      vertex 40.5622 38.5926 0
      vertex 39.6857 39.4316 0
    endloop
  endfacet
  facet normal 0.915291 0.402794 0
    outer loop
      vertex 41.0509 37.4821 10
      vertex 40.5622 38.5926 0
      vertex 40.5622 38.5926 10
    endloop
  endfacet
  facet normal 0.915291 0.402794 0
    outer loop
      vertex 40.5622 38.5926 0
      vertex 41.0509 37.4821 10
      vertex 41.0509 37.4821 0
    endloop
  endfacet
  facet normal 0.362478 0.931992 -0
    outer loop
      vertex 39.6857 39.4316 0
      vertex 38.5549 39.8714 10
      vertex 39.6857 39.4316 10
    endloop
  endfacet
  facet normal 0.362478 0.931992 0
    outer loop
      vertex 38.5549 39.8714 10
      vertex 39.6857 39.4316 0
      vertex 38.5549 39.8714 0
    endloop
  endfacet
  facet normal -0.72235 0.691528 0
    outer loop
      vertex 35.3923 38.4798 0
      vertex 36.2314 39.3563 10
      vertex 36.2314 39.3563 0
    endloop
  endfacet
  facet normal -0.72235 0.691528 0
    outer loop
      vertex 36.2314 39.3563 10
      vertex 35.3923 38.4798 0
      vertex 35.3923 38.4798 10
    endloop
  endfacet
  facet normal -0.93202 0.362406 0
    outer loop
      vertex 34.9526 37.349 0
      vertex 35.3923 38.4798 10
      vertex 35.3923 38.4798 0
    endloop
  endfacet
  facet normal -0.93202 0.362406 0
    outer loop
      vertex 35.3923 38.4798 10
      vertex 34.9526 37.349 0
      vertex 34.9526 37.349 10
    endloop
  endfacet
  facet normal -0.402725 0.915321 0
    outer loop
      vertex 37.3419 39.8449 0
      vertex 36.2314 39.3563 10
      vertex 37.3419 39.8449 10
    endloop
  endfacet
  facet normal -0.402725 0.915321 0
    outer loop
      vertex 36.2314 39.3563 10
      vertex 37.3419 39.8449 0
      vertex 36.2314 39.3563 0
    endloop
  endfacet
  facet normal -0.984808 0.173647 0
    outer loop
      vertex 39.4919 9.46684 0
      vertex 44.4039 37.3244 10
      vertex 44.4039 37.3244 0
    endloop
  endfacet
  facet normal -0.984808 0.173647 0
    outer loop
      vertex 44.4039 37.3244 10
      vertex 39.4919 9.46684 0
      vertex 39.4919 9.46684 10
    endloop
  endfacet
  facet normal 0.984808 -0.173647 0
    outer loop
      vertex 45.3192 6.70024 10
      vertex 50.5286 36.2445 0
      vertex 50.5286 36.2445 10
    endloop
  endfacet
  facet normal 0.984808 -0.173647 0
    outer loop
      vertex 50.5286 36.2445 0
      vertex 45.3192 6.70024 10
      vertex 45.3192 6.70024 0
    endloop
  endfacet
  facet normal 0.999763 0.0217591 0
    outer loop
      vertex 50.5286 36.2445 10
      vertex 50.5022 37.4575 0
      vertex 50.5022 37.4575 10
    endloop
  endfacet
  facet normal 0.999763 0.0217591 0
    outer loop
      vertex 50.5022 37.4575 0
      vertex 50.5286 36.2445 10
      vertex 50.5286 36.2445 0
    endloop
  endfacet
  facet normal -0.0217573 0.999763 0
    outer loop
      vertex 48.0063 39.8468 0
      vertex 46.7932 39.8204 10
      vertex 48.0063 39.8468 10
    endloop
  endfacet
  facet normal -0.0217573 0.999763 0
    outer loop
      vertex 46.7932 39.8204 10
      vertex 48.0063 39.8468 0
      vertex 46.7932 39.8204 0
    endloop
  endfacet
  facet normal 0.691526 0.722352 -0
    outer loop
      vertex 50.0135 38.5681 0
      vertex 49.1371 39.4071 10
      vertex 50.0135 38.5681 10
    endloop
  endfacet
  facet normal 0.691526 0.722352 0
    outer loop
      vertex 49.1371 39.4071 10
      vertex 50.0135 38.5681 0
      vertex 49.1371 39.4071 0
    endloop
  endfacet
  facet normal 0.915304 0.402763 0
    outer loop
      vertex 50.5022 37.4575 10
      vertex 50.0135 38.5681 0
      vertex 50.0135 38.5681 10
    endloop
  endfacet
  facet normal 0.915304 0.402763 0
    outer loop
      vertex 50.0135 38.5681 0
      vertex 50.5022 37.4575 10
      vertex 50.5022 37.4575 0
    endloop
  endfacet
  facet normal 0.362406 0.93202 -0
    outer loop
      vertex 49.1371 39.4071 0
      vertex 48.0063 39.8468 10
      vertex 49.1371 39.4071 10
    endloop
  endfacet
  facet normal 0.362406 0.93202 0
    outer loop
      vertex 48.0063 39.8468 10
      vertex 49.1371 39.4071 0
      vertex 48.0063 39.8468 0
    endloop
  endfacet
  facet normal -0.722391 0.691485 0
    outer loop
      vertex 44.8437 38.4552 0
      vertex 45.6827 39.3317 10
      vertex 45.6827 39.3317 0
    endloop
  endfacet
  facet normal -0.722391 0.691485 0
    outer loop
      vertex 45.6827 39.3317 10
      vertex 44.8437 38.4552 0
      vertex 44.8437 38.4552 10
    endloop
  endfacet
  facet normal -0.931992 0.362478 0
    outer loop
      vertex 44.4039 37.3244 0
      vertex 44.8437 38.4552 10
      vertex 44.8437 38.4552 0
    endloop
  endfacet
  facet normal -0.931992 0.362478 0
    outer loop
      vertex 44.8437 38.4552 10
      vertex 44.4039 37.3244 0
      vertex 44.4039 37.3244 10
    endloop
  endfacet
  facet normal -0.402794 0.915291 0
    outer loop
      vertex 46.7932 39.8204 0
      vertex 45.6827 39.3317 10
      vertex 46.7932 39.8204 10
    endloop
  endfacet
  facet normal -0.402794 0.915291 0
    outer loop
      vertex 45.6827 39.3317 10
      vertex 46.7932 39.8204 0
      vertex 45.6827 39.3317 0
    endloop
  endfacet
endsolid OpenSCAD_Model
