solid OpenSCAD_Model
  facet normal -0.707109 0.707105 0
    outer loop
      vertex -16.3609 5.35583 -0.0464725
      vertex -14.75 6.96674 7
      vertex -14.75 6.96674 -0.0464725
    endloop
  endfacet
  facet normal -0.707109 0.707105 0
    outer loop
      vertex -14.75 6.96674 7
      vertex -16.3609 5.35583 -0.0464725
      vertex -16.3609 5.35583 7
    endloop
  endfacet
  facet normal 1 -0 0
    outer loop
      vertex -20.25 6.96674 7
      vertex -20.25 9.24492 -0.0464725
      vertex -20.25 9.24492 7
    endloop
  endfacet
  facet normal 1 0 0
    outer loop
      vertex -20.25 9.24492 -0.0464725
      vertex -20.25 6.96674 7
      vertex -20.25 6.96674 -0.0464725
    endloop
  endfacet
  facet normal 0 1 -0
    outer loop
      vertex -16.3609 5.35583 -0.0464725
      vertex -18.6391 5.35583 7
      vertex -16.3609 5.35583 7
    endloop
  endfacet
  facet normal 0 1 0
    outer loop
      vertex -18.6391 5.35583 7
      vertex -16.3609 5.35583 -0.0464725
      vertex -18.6391 5.35583 -0.0464725
    endloop
  endfacet
  facet normal 0 0 -1
    outer loop
      vertex -12.75 6.13831 10
      vertex -13 6.24187 10
      vertex -12.75 10.0733 10
    endloop
  endfacet
  facet normal 0 0 -1
    outer loop
      vertex -15.5325 3.35583 10
      vertex -13 6.24187 10
      vertex -12.75 6.13831 10
    endloop
  endfacet
  facet normal 0 0 -1
    outer loop
      vertex -15.5325 3.35583 10
      vertex -15.636 3.60583 10
      vertex -13 6.24187 10
    endloop
  endfacet
  facet normal 0 0 -1
    outer loop
      vertex -15.5325 3.35583 10
      vertex -19.364 3.60583 10
      vertex -15.636 3.60583 10
    endloop
  endfacet
  facet normal 0 0 -1
    outer loop
      vertex -19.4675 3.35583 10
      vertex -19.364 3.60583 10
      vertex -15.5325 3.35583 10
    endloop
  endfacet
  facet normal 0 0 -1
    outer loop
      vertex -19.4675 3.35583 10
      vertex -22 6.24187 10
      vertex -19.364 3.60583 10
    endloop
  endfacet
  facet normal -0 0 -1
    outer loop
      vertex -22 6.24187 10
      vertex -22.25 6.13831 10
      vertex -22 9.96979 10
    endloop
  endfacet
  facet normal 0 0 -1
    outer loop
      vertex -22.25 6.13831 10
      vertex -22 6.24187 10
      vertex -19.4675 3.35583 10
    endloop
  endfacet
  facet normal 0 0 -1
    outer loop
      vertex -13 9.96979 10
      vertex -12.75 10.0733 10
      vertex -13 6.24187 10
    endloop
  endfacet
  facet normal 0 0 -1
    outer loop
      vertex -13 9.96979 10
      vertex -15.5325 12.8558 10
      vertex -12.75 10.0733 10
    endloop
  endfacet
  facet normal 0 0 -1
    outer loop
      vertex -15.636 12.6058 10
      vertex -15.5325 12.8558 10
      vertex -13 9.96979 10
    endloop
  endfacet
  facet normal 0 0 -1
    outer loop
      vertex -19.364 12.6058 10
      vertex -15.5325 12.8558 10
      vertex -15.636 12.6058 10
    endloop
  endfacet
  facet normal 0 0 -1
    outer loop
      vertex -19.364 12.6058 10
      vertex -19.4675 12.8558 10
      vertex -15.5325 12.8558 10
    endloop
  endfacet
  facet normal 0 0 -1
    outer loop
      vertex -22 9.96979 10
      vertex -19.4675 12.8558 10
      vertex -19.364 12.6058 10
    endloop
  endfacet
  facet normal 0 0 -1
    outer loop
      vertex -22 9.96979 10
      vertex -22.25 10.0733 10
      vertex -19.4675 12.8558 10
    endloop
  endfacet
  facet normal 0 0 -1
    outer loop
      vertex -22.25 10.0733 10
      vertex -22 9.96979 10
      vertex -22.25 6.13831 10
    endloop
  endfacet
  facet normal 0.707109 0.707105 0
    outer loop
      vertex -18.6391 5.35583 7
      vertex -20.25 6.96674 -0.0464725
      vertex -20.25 6.96674 7
    endloop
  endfacet
  facet normal 0.707109 0.707105 0
    outer loop
      vertex -20.25 6.96674 -0.0464725
      vertex -18.6391 5.35583 7
      vertex -18.6391 5.35583 -0.0464725
    endloop
  endfacet
  facet normal -0.707102 -0.707111 0
    outer loop
      vertex -14.75 9.24492 -0.0464725
      vertex -16.3609 10.8558 7
      vertex -16.3609 10.8558 -0.0464725
    endloop
  endfacet
  facet normal -0.707102 -0.707111 0
    outer loop
      vertex -16.3609 10.8558 7
      vertex -14.75 9.24492 -0.0464725
      vertex -14.75 9.24492 7
    endloop
  endfacet
  facet normal 0.707102 -0.707111 0
    outer loop
      vertex -20.25 9.24492 7
      vertex -18.6391 10.8558 -0.0464725
      vertex -18.6391 10.8558 7
    endloop
  endfacet
  facet normal 0.707102 -0.707111 0
    outer loop
      vertex -18.6391 10.8558 -0.0464725
      vertex -20.25 9.24492 7
      vertex -20.25 9.24492 -0.0464725
    endloop
  endfacet
  facet normal -1 0 0
    outer loop
      vertex -14.75 6.96674 -0.0464725
      vertex -14.75 9.24492 7
      vertex -14.75 9.24492 -0.0464725
    endloop
  endfacet
  facet normal -1 -0 0
    outer loop
      vertex -14.75 9.24492 7
      vertex -14.75 6.96674 -0.0464725
      vertex -14.75 6.96674 7
    endloop
  endfacet
  facet normal 0 -1 0
    outer loop
      vertex -18.6391 10.8558 -0.0464725
      vertex -16.3609 10.8558 7
      vertex -18.6391 10.8558 7
    endloop
  endfacet
  facet normal 0 -1 -0
    outer loop
      vertex -16.3609 10.8558 7
      vertex -18.6391 10.8558 -0.0464725
      vertex -16.3609 10.8558 -0.0464725
    endloop
  endfacet
  facet normal 0.83205 0 0.5547
    outer loop
      vertex -22.25 10.0733 10
      vertex -20.25 6.96674 7
      vertex -20.25 9.24492 7
    endloop
  endfacet
  facet normal 0.83205 0 0.5547
    outer loop
      vertex -20.25 6.96674 7
      vertex -22.25 10.0733 10
      vertex -22.25 6.13831 10
    endloop
  endfacet
  facet normal 0 0.83205 0.5547
    outer loop
      vertex -16.3609 5.35583 7
      vertex -19.4675 3.35583 10
      vertex -15.5325 3.35583 10
    endloop
  endfacet
  facet normal 0 0.83205 0.5547
    outer loop
      vertex -19.4675 3.35583 10
      vertex -16.3609 5.35583 7
      vertex -18.6391 5.35583 7
    endloop
  endfacet
  facet normal -0.58835 0.588346 0.554701
    outer loop
      vertex -16.3609 5.35583 7
      vertex -12.75 6.13831 10
      vertex -14.75 6.96674 7
    endloop
  endfacet
  facet normal -0.588348 0.588352 0.554697
    outer loop
      vertex -12.75 6.13831 10
      vertex -16.3609 5.35583 7
      vertex -15.5325 3.35583 10
    endloop
  endfacet
  facet normal 0.58835 0.588346 0.554701
    outer loop
      vertex -22.25 6.13831 10
      vertex -18.6391 5.35583 7
      vertex -20.25 6.96674 7
    endloop
  endfacet
  facet normal 0.588348 0.588352 0.554697
    outer loop
      vertex -18.6391 5.35583 7
      vertex -22.25 6.13831 10
      vertex -19.4675 3.35583 10
    endloop
  endfacet
  facet normal -0.58835 -0.58835 0.554697
    outer loop
      vertex -16.3609 10.8558 7
      vertex -12.75 10.0733 10
      vertex -15.5325 12.8558 10
    endloop
  endfacet
  facet normal -0.588348 -0.588356 0.554693
    outer loop
      vertex -12.75 10.0733 10
      vertex -16.3609 10.8558 7
      vertex -14.75 9.24492 7
    endloop
  endfacet
  facet normal 0.58835 -0.58835 0.554697
    outer loop
      vertex -22.25 10.0733 10
      vertex -18.6391 10.8558 7
      vertex -19.4675 12.8558 10
    endloop
  endfacet
  facet normal 0.588348 -0.588356 0.554693
    outer loop
      vertex -18.6391 10.8558 7
      vertex -22.25 10.0733 10
      vertex -20.25 9.24492 7
    endloop
  endfacet
  facet normal -0.83205 0 0.5547
    outer loop
      vertex -14.75 6.96674 7
      vertex -12.75 10.0733 10
      vertex -14.75 9.24492 7
    endloop
  endfacet
  facet normal -0.83205 0 0.5547
    outer loop
      vertex -12.75 10.0733 10
      vertex -14.75 6.96674 7
      vertex -12.75 6.13831 10
    endloop
  endfacet
  facet normal 0 -0.83205 0.5547
    outer loop
      vertex -18.6391 10.8558 7
      vertex -15.5325 12.8558 10
      vertex -19.4675 12.8558 10
    endloop
  endfacet
  facet normal 0 -0.83205 0.5547
    outer loop
      vertex -15.5325 12.8558 10
      vertex -18.6391 10.8558 7
      vertex -16.3609 10.8558 7
    endloop
  endfacet
  facet normal -0.707112 0.707101 0
    outer loop
      vertex -15.636 3.60583 10
      vertex -13 6.24187 16.3358
      vertex -13 6.24187 10
    endloop
  endfacet
  facet normal -0.707112 0.707101 0
    outer loop
      vertex -13 6.24187 16.3358
      vertex -15.636 3.60583 10
      vertex -15.636 3.60583 16.4457
    endloop
  endfacet
  facet normal 1 0 0
    outer loop
      vertex -22 6.24187 10
      vertex -22 9.96979 16.1805
      vertex -22 6.24187 16.3358
    endloop
  endfacet
  facet normal 1 0 0
    outer loop
      vertex -22 9.96979 16.1805
      vertex -22 6.24187 10
      vertex -22 9.96979 10
    endloop
  endfacet
  facet normal 0 1 -0
    outer loop
      vertex -15.636 3.60583 10
      vertex -19.364 3.60583 16.4457
      vertex -15.636 3.60583 16.4457
    endloop
  endfacet
  facet normal 0 1 0
    outer loop
      vertex -19.364 3.60583 16.4457
      vertex -15.636 3.60583 10
      vertex -19.364 3.60583 10
    endloop
  endfacet
  facet normal 0.707112 0.707101 -0
    outer loop
      vertex -19.364 3.60583 10
      vertex -22 6.24187 16.3358
      vertex -19.364 3.60583 16.4457
    endloop
  endfacet
  facet normal 0.707112 0.707101 0
    outer loop
      vertex -22 6.24187 16.3358
      vertex -19.364 3.60583 10
      vertex -22 6.24187 10
    endloop
  endfacet
  facet normal -0.707108 -0.707105 0
    outer loop
      vertex -13 9.96979 10
      vertex -15.636 12.6058 16.0707
      vertex -15.636 12.6058 10
    endloop
  endfacet
  facet normal -0.707108 -0.707105 0
    outer loop
      vertex -15.636 12.6058 16.0707
      vertex -13 9.96979 10
      vertex -13 9.96979 16.1805
    endloop
  endfacet
  facet normal 0.707108 -0.707105 0
    outer loop
      vertex -22 9.96979 10
      vertex -19.364 12.6058 16.0707
      vertex -22 9.96979 16.1805
    endloop
  endfacet
  facet normal 0.707108 -0.707105 0
    outer loop
      vertex -19.364 12.6058 16.0707
      vertex -22 9.96979 10
      vertex -19.364 12.6058 10
    endloop
  endfacet
  facet normal 0 -1 0
    outer loop
      vertex -19.364 12.6058 10
      vertex -15.636 12.6058 16.0707
      vertex -19.364 12.6058 16.0707
    endloop
  endfacet
  facet normal 0 -1 -0
    outer loop
      vertex -15.636 12.6058 16.0707
      vertex -19.364 12.6058 10
      vertex -15.636 12.6058 10
    endloop
  endfacet
  facet normal -1 0 0
    outer loop
      vertex -13 6.24187 10
      vertex -13 9.96979 16.1805
      vertex -13 9.96979 10
    endloop
  endfacet
  facet normal -1 -0 0
    outer loop
      vertex -13 9.96979 16.1805
      vertex -13 6.24187 10
      vertex -13 6.24187 16.3358
    endloop
  endfacet
  facet normal -0.707109 0.707105 0
    outer loop
      vertex 18.6391 5.35583 -0.0464725
      vertex 20.25 6.96674 7
      vertex 20.25 6.96674 -0.0464725
    endloop
  endfacet
  facet normal -0.707109 0.707105 0
    outer loop
      vertex 20.25 6.96674 7
      vertex 18.6391 5.35583 -0.0464725
      vertex 18.6391 5.35583 7
    endloop
  endfacet
  facet normal 1 -0 0
    outer loop
      vertex 14.75 6.96674 7
      vertex 14.75 9.24492 -0.0464725
      vertex 14.75 9.24492 7
    endloop
  endfacet
  facet normal 1 0 0
    outer loop
      vertex 14.75 9.24492 -0.0464725
      vertex 14.75 6.96674 7
      vertex 14.75 6.96674 -0.0464725
    endloop
  endfacet
  facet normal 0 1 -0
    outer loop
      vertex 18.6391 5.35583 -0.0464725
      vertex 16.3609 5.35583 7
      vertex 18.6391 5.35583 7
    endloop
  endfacet
  facet normal 0 1 0
    outer loop
      vertex 16.3609 5.35583 7
      vertex 18.6391 5.35583 -0.0464725
      vertex 16.3609 5.35583 -0.0464725
    endloop
  endfacet
  facet normal 0 0 -1
    outer loop
      vertex 22.25 6.13831 10
      vertex 22 6.24187 10
      vertex 22.25 10.0733 10
    endloop
  endfacet
  facet normal 0 0 -1
    outer loop
      vertex 19.4675 3.35583 10
      vertex 22 6.24187 10
      vertex 22.25 6.13831 10
    endloop
  endfacet
  facet normal 0 0 -1
    outer loop
      vertex 19.4675 3.35583 10
      vertex 19.364 3.60583 10
      vertex 22 6.24187 10
    endloop
  endfacet
  facet normal 0 0 -1
    outer loop
      vertex 19.4675 3.35583 10
      vertex 15.636 3.60583 10
      vertex 19.364 3.60583 10
    endloop
  endfacet
  facet normal 0 0 -1
    outer loop
      vertex 15.5325 3.35583 10
      vertex 15.636 3.60583 10
      vertex 19.4675 3.35583 10
    endloop
  endfacet
  facet normal 0 0 -1
    outer loop
      vertex 15.5325 3.35583 10
      vertex 13 6.24187 10
      vertex 15.636 3.60583 10
    endloop
  endfacet
  facet normal -0 0 -1
    outer loop
      vertex 13 6.24187 10
      vertex 12.75 6.13831 10
      vertex 13 9.96979 10
    endloop
  endfacet
  facet normal 0 0 -1
    outer loop
      vertex 12.75 6.13831 10
      vertex 13 6.24187 10
      vertex 15.5325 3.35583 10
    endloop
  endfacet
  facet normal 0 0 -1
    outer loop
      vertex 22 9.96979 10
      vertex 22.25 10.0733 10
      vertex 22 6.24187 10
    endloop
  endfacet
  facet normal 0 0 -1
    outer loop
      vertex 22 9.96979 10
      vertex 19.4675 12.8558 10
      vertex 22.25 10.0733 10
    endloop
  endfacet
  facet normal 0 0 -1
    outer loop
      vertex 19.364 12.6058 10
      vertex 19.4675 12.8558 10
      vertex 22 9.96979 10
    endloop
  endfacet
  facet normal 0 0 -1
    outer loop
      vertex 15.636 12.6058 10
      vertex 19.4675 12.8558 10
      vertex 19.364 12.6058 10
    endloop
  endfacet
  facet normal 0 0 -1
    outer loop
      vertex 15.636 12.6058 10
      vertex 15.5325 12.8558 10
      vertex 19.4675 12.8558 10
    endloop
  endfacet
  facet normal 0 0 -1
    outer loop
      vertex 13 9.96979 10
      vertex 15.5325 12.8558 10
      vertex 15.636 12.6058 10
    endloop
  endfacet
  facet normal 0 0 -1
    outer loop
      vertex 13 9.96979 10
      vertex 12.75 10.0733 10
      vertex 15.5325 12.8558 10
    endloop
  endfacet
  facet normal 0 0 -1
    outer loop
      vertex 12.75 10.0733 10
      vertex 13 9.96979 10
      vertex 12.75 6.13831 10
    endloop
  endfacet
  facet normal 0.707109 0.707105 0
    outer loop
      vertex 16.3609 5.35583 7
      vertex 14.75 6.96674 -0.0464725
      vertex 14.75 6.96674 7
    endloop
  endfacet
  facet normal 0.707109 0.707105 0
    outer loop
      vertex 14.75 6.96674 -0.0464725
      vertex 16.3609 5.35583 7
      vertex 16.3609 5.35583 -0.0464725
    endloop
  endfacet
  facet normal -0.707102 -0.707111 0
    outer loop
      vertex 20.25 9.24492 -0.0464725
      vertex 18.6391 10.8558 7
      vertex 18.6391 10.8558 -0.0464725
    endloop
  endfacet
  facet normal -0.707102 -0.707111 0
    outer loop
      vertex 18.6391 10.8558 7
      vertex 20.25 9.24492 -0.0464725
      vertex 20.25 9.24492 7
    endloop
  endfacet
  facet normal 0.707102 -0.707111 0
    outer loop
      vertex 14.75 9.24492 7
      vertex 16.3609 10.8558 -0.0464725
      vertex 16.3609 10.8558 7
    endloop
  endfacet
  facet normal 0.707102 -0.707111 0
    outer loop
      vertex 16.3609 10.8558 -0.0464725
      vertex 14.75 9.24492 7
      vertex 14.75 9.24492 -0.0464725
    endloop
  endfacet
  facet normal -1 0 0
    outer loop
      vertex 20.25 6.96674 -0.0464725
      vertex 20.25 9.24492 7
      vertex 20.25 9.24492 -0.0464725
    endloop
  endfacet
  facet normal -1 -0 0
    outer loop
      vertex 20.25 9.24492 7
      vertex 20.25 6.96674 -0.0464725
      vertex 20.25 6.96674 7
    endloop
  endfacet
  facet normal 0 -1 0
    outer loop
      vertex 16.3609 10.8558 -0.0464725
      vertex 18.6391 10.8558 7
      vertex 16.3609 10.8558 7
    endloop
  endfacet
  facet normal 0 -1 -0
    outer loop
      vertex 18.6391 10.8558 7
      vertex 16.3609 10.8558 -0.0464725
      vertex 18.6391 10.8558 -0.0464725
    endloop
  endfacet
  facet normal 0.83205 0 0.5547
    outer loop
      vertex 12.75 10.0733 10
      vertex 14.75 6.96674 7
      vertex 14.75 9.24492 7
    endloop
  endfacet
  facet normal 0.83205 0 0.5547
    outer loop
      vertex 14.75 6.96674 7
      vertex 12.75 10.0733 10
      vertex 12.75 6.13831 10
    endloop
  endfacet
  facet normal 0 0.83205 0.5547
    outer loop
      vertex 18.6391 5.35583 7
      vertex 15.5325 3.35583 10
      vertex 19.4675 3.35583 10
    endloop
  endfacet
  facet normal 0 0.83205 0.5547
    outer loop
      vertex 15.5325 3.35583 10
      vertex 18.6391 5.35583 7
      vertex 16.3609 5.35583 7
    endloop
  endfacet
  facet normal -0.58835 0.588346 0.554701
    outer loop
      vertex 18.6391 5.35583 7
      vertex 22.25 6.13831 10
      vertex 20.25 6.96674 7
    endloop
  endfacet
  facet normal -0.588348 0.588352 0.554697
    outer loop
      vertex 22.25 6.13831 10
      vertex 18.6391 5.35583 7
      vertex 19.4675 3.35583 10
    endloop
  endfacet
  facet normal 0.58835 0.588346 0.554701
    outer loop
      vertex 12.75 6.13831 10
      vertex 16.3609 5.35583 7
      vertex 14.75 6.96674 7
    endloop
  endfacet
  facet normal 0.588348 0.588352 0.554697
    outer loop
      vertex 16.3609 5.35583 7
      vertex 12.75 6.13831 10
      vertex 15.5325 3.35583 10
    endloop
  endfacet
  facet normal -0.58835 -0.58835 0.554697
    outer loop
      vertex 18.6391 10.8558 7
      vertex 22.25 10.0733 10
      vertex 19.4675 12.8558 10
    endloop
  endfacet
  facet normal -0.588348 -0.588356 0.554693
    outer loop
      vertex 22.25 10.0733 10
      vertex 18.6391 10.8558 7
      vertex 20.25 9.24492 7
    endloop
  endfacet
  facet normal 0.58835 -0.58835 0.554697
    outer loop
      vertex 12.75 10.0733 10
      vertex 16.3609 10.8558 7
      vertex 15.5325 12.8558 10
    endloop
  endfacet
  facet normal 0.588348 -0.588356 0.554693
    outer loop
      vertex 16.3609 10.8558 7
      vertex 12.75 10.0733 10
      vertex 14.75 9.24492 7
    endloop
  endfacet
  facet normal -0.83205 0 0.5547
    outer loop
      vertex 20.25 6.96674 7
      vertex 22.25 10.0733 10
      vertex 20.25 9.24492 7
    endloop
  endfacet
  facet normal -0.83205 0 0.5547
    outer loop
      vertex 22.25 10.0733 10
      vertex 20.25 6.96674 7
      vertex 22.25 6.13831 10
    endloop
  endfacet
  facet normal 0 -0.83205 0.5547
    outer loop
      vertex 16.3609 10.8558 7
      vertex 19.4675 12.8558 10
      vertex 15.5325 12.8558 10
    endloop
  endfacet
  facet normal 0 -0.83205 0.5547
    outer loop
      vertex 19.4675 12.8558 10
      vertex 16.3609 10.8558 7
      vertex 18.6391 10.8558 7
    endloop
  endfacet
  facet normal -0.707112 0.707101 0
    outer loop
      vertex 19.364 3.60583 10
      vertex 22 6.24187 16.3358
      vertex 22 6.24187 10
    endloop
  endfacet
  facet normal -0.707112 0.707101 0
    outer loop
      vertex 22 6.24187 16.3358
      vertex 19.364 3.60583 10
      vertex 19.364 3.60583 16.4457
    endloop
  endfacet
  facet normal 1 0 0
    outer loop
      vertex 13 6.24187 10
      vertex 13 9.96979 16.1805
      vertex 13 6.24187 16.3358
    endloop
  endfacet
  facet normal 1 0 0
    outer loop
      vertex 13 9.96979 16.1805
      vertex 13 6.24187 10
      vertex 13 9.96979 10
    endloop
  endfacet
  facet normal 0 1 -0
    outer loop
      vertex 19.364 3.60583 10
      vertex 15.636 3.60583 16.4457
      vertex 19.364 3.60583 16.4457
    endloop
  endfacet
  facet normal 0 1 0
    outer loop
      vertex 15.636 3.60583 16.4457
      vertex 19.364 3.60583 10
      vertex 15.636 3.60583 10
    endloop
  endfacet
  facet normal 0.707112 0.707101 -0
    outer loop
      vertex 15.636 3.60583 10
      vertex 13 6.24187 16.3358
      vertex 15.636 3.60583 16.4457
    endloop
  endfacet
  facet normal 0.707112 0.707101 0
    outer loop
      vertex 13 6.24187 16.3358
      vertex 15.636 3.60583 10
      vertex 13 6.24187 10
    endloop
  endfacet
  facet normal -0.707108 -0.707105 0
    outer loop
      vertex 22 9.96979 10
      vertex 19.364 12.6058 16.0707
      vertex 19.364 12.6058 10
    endloop
  endfacet
  facet normal -0.707108 -0.707105 0
    outer loop
      vertex 19.364 12.6058 16.0707
      vertex 22 9.96979 10
      vertex 22 9.96979 16.1805
    endloop
  endfacet
  facet normal 0.707108 -0.707105 0
    outer loop
      vertex 13 9.96979 10
      vertex 15.636 12.6058 16.0707
      vertex 13 9.96979 16.1805
    endloop
  endfacet
  facet normal 0.707108 -0.707105 0
    outer loop
      vertex 15.636 12.6058 16.0707
      vertex 13 9.96979 10
      vertex 15.636 12.6058 10
    endloop
  endfacet
  facet normal 0 -1 0
    outer loop
      vertex 15.636 12.6058 10
      vertex 19.364 12.6058 16.0707
      vertex 15.636 12.6058 16.0707
    endloop
  endfacet
  facet normal 0 -1 -0
    outer loop
      vertex 19.364 12.6058 16.0707
      vertex 15.636 12.6058 10
      vertex 19.364 12.6058 10
    endloop
  endfacet
  facet normal -1 0 0
    outer loop
      vertex 22 6.24187 10
      vertex 22 9.96979 16.1805
      vertex 22 9.96979 10
    endloop
  endfacet
  facet normal -1 -0 0
    outer loop
      vertex 22 9.96979 16.1805
      vertex 22 6.24187 10
      vertex 22 6.24187 16.3358
    endloop
  endfacet
  facet normal -0 0.0416302 0.999133
    outer loop
      vertex -11.275 18.717 13.8143
      vertex 11.275 -76.9406 17.8
      vertex 11.275 18.717 13.8143
    endloop
  endfacet
  facet normal 0 0.0416302 0.999133
    outer loop
      vertex 11.275 -76.9406 17.8
      vertex -11.275 18.717 13.8143
      vertex -11.275 -76.9406 17.8
    endloop
  endfacet
  facet normal -0 0.0416302 0.999133
    outer loop
      vertex 25.625 18.717 13.8143
      vertex 48.175 -76.9406 17.8
      vertex 48.175 18.717 13.8143
    endloop
  endfacet
  facet normal 0 0.0416302 0.999133
    outer loop
      vertex 48.175 -76.9406 17.8
      vertex 25.625 18.717 13.8143
      vertex 25.625 -76.9406 17.8
    endloop
  endfacet
  facet normal 1 -0 0
    outer loop
      vertex -48.175 -76.9406 17.8
      vertex -48.175 17.1711 14.9218
      vertex -48.175 -76.5848 18.8283
    endloop
  endfacet
  facet normal 1 0 0
    outer loop
      vertex -48.175 17.1711 14.9218
      vertex -48.175 -76.9406 17.8
      vertex -48.175 18.717 13.8143
    endloop
  endfacet
  facet normal -0 0.0416302 0.999133
    outer loop
      vertex -48.175 18.717 13.8143
      vertex -25.625 -76.9406 17.8
      vertex -25.625 18.717 13.8143
    endloop
  endfacet
  facet normal 0 0.0416302 0.999133
    outer loop
      vertex -25.625 -76.9406 17.8
      vertex -48.175 18.717 13.8143
      vertex -48.175 -76.9406 17.8
    endloop
  endfacet
  facet normal 1 -0 0
    outer loop
      vertex 25.625 -76.9406 17.8
      vertex 25.625 17.1711 14.9218
      vertex 25.625 -76.5848 18.8283
    endloop
  endfacet
  facet normal 1 0 0
    outer loop
      vertex 25.625 17.1711 14.9218
      vertex 25.625 -76.9406 17.8
      vertex 25.625 18.717 13.8143
    endloop
  endfacet
  facet normal -1 0 0
    outer loop
      vertex -25.625 -76.9406 17.8
      vertex -25.625 17.1711 14.9218
      vertex -25.625 18.717 13.8143
    endloop
  endfacet
  facet normal -1 0 0
    outer loop
      vertex -25.625 17.1711 14.9218
      vertex -25.625 -76.9406 17.8
      vertex -25.625 -76.5848 18.8283
    endloop
  endfacet
  facet normal -1 0 0
    outer loop
      vertex 11.275 -76.9406 17.8
      vertex 11.275 17.1711 14.9218
      vertex 11.275 18.717 13.8143
    endloop
  endfacet
  facet normal -1 0 0
    outer loop
      vertex 11.275 17.1711 14.9218
      vertex 11.275 -76.9406 17.8
      vertex 11.275 -76.5848 18.8283
    endloop
  endfacet
  facet normal -1 0 0
    outer loop
      vertex 48.175 -76.9406 17.8
      vertex 48.175 17.1711 14.9218
      vertex 48.175 18.717 13.8143
    endloop
  endfacet
  facet normal -1 0 0
    outer loop
      vertex 48.175 17.1711 14.9218
      vertex 48.175 -76.9406 17.8
      vertex 48.175 -76.5848 18.8283
    endloop
  endfacet
  facet normal -4.70024e-06 0.0416225 0.999133
    outer loop
      vertex 22 6.24187 16.3358
      vertex 24.6 15.7504 15.9397
      vertex 22 9.96979 16.1805
    endloop
  endfacet
  facet normal 1.8195e-06 0.0416196 0.999134
    outer loop
      vertex 24.6 15.7504 15.9397
      vertex 19.364 12.6058 16.0707
      vertex 22 9.96979 16.1805
    endloop
  endfacet
  facet normal -0 0.0416226 0.999133
    outer loop
      vertex 12.3 15.7504 15.9397
      vertex 19.364 12.6058 16.0707
      vertex 24.6 15.7504 15.9397
    endloop
  endfacet
  facet normal 1.7458e-05 0.0416225 0.999133
    outer loop
      vertex 13 9.96979 16.1805
      vertex 12.3 15.7504 15.9397
      vertex 13 6.24187 16.3358
    endloop
  endfacet
  facet normal -2.35295e-06 0.0416201 0.999134
    outer loop
      vertex 15.636 12.6058 16.0707
      vertex 12.3 15.7504 15.9397
      vertex 13 9.96979 16.1805
    endloop
  endfacet
  facet normal 0 0.0416226 0.999133
    outer loop
      vertex 19.364 12.6058 16.0707
      vertex 12.3 15.7504 15.9397
      vertex 15.636 12.6058 16.0707
    endloop
  endfacet
  facet normal -3.12599e-05 0.0416298 0.999133
    outer loop
      vertex 24.6 15.7504 15.9397
      vertex 22 6.24187 16.3358
      vertex 24.6 -75.2209 19.7301
    endloop
  endfacet
  facet normal 2.36622e-05 0.0416315 0.999133
    outer loop
      vertex 19.364 3.60583 16.4457
      vertex 24.6 -75.2209 19.7301
      vertex 22 6.24187 16.3358
    endloop
  endfacet
  facet normal 0 0.0416299 0.999133
    outer loop
      vertex 12.3 -75.2209 19.7301
      vertex 19.364 3.60583 16.4457
      vertex 15.636 3.60583 16.4457
    endloop
  endfacet
  facet normal -2.42094e-05 0.041631 0.999133
    outer loop
      vertex 12.3 -75.2209 19.7301
      vertex 15.636 3.60583 16.4457
      vertex 13 6.24187 16.3358
    endloop
  endfacet
  facet normal 0 0.0416299 0.999133
    outer loop
      vertex 19.364 3.60583 16.4457
      vertex 12.3 -75.2209 19.7301
      vertex 24.6 -75.2209 19.7301
    endloop
  endfacet
  facet normal 0.000116108 0.0416298 0.999133
    outer loop
      vertex 12.3 -75.2209 19.7301
      vertex 13 6.24187 16.3358
      vertex 12.3 15.7504 15.9397
    endloop
  endfacet
  facet normal -1.7458e-05 0.0416225 0.999133
    outer loop
      vertex -13 6.24187 16.3358
      vertex -12.3 15.7504 15.9397
      vertex -13 9.96979 16.1805
    endloop
  endfacet
  facet normal 2.35295e-06 0.0416201 0.999134
    outer loop
      vertex -12.3 15.7504 15.9397
      vertex -15.636 12.6058 16.0707
      vertex -13 9.96979 16.1805
    endloop
  endfacet
  facet normal 0 0.0416226 0.999133
    outer loop
      vertex -12.3 15.7504 15.9397
      vertex -19.364 12.6058 16.0707
      vertex -15.636 12.6058 16.0707
    endloop
  endfacet
  facet normal 4.70024e-06 0.0416225 0.999133
    outer loop
      vertex -22 9.96979 16.1805
      vertex -24.6 15.7504 15.9397
      vertex -22 6.24187 16.3358
    endloop
  endfacet
  facet normal -1.8195e-06 0.0416196 0.999134
    outer loop
      vertex -19.364 12.6058 16.0707
      vertex -24.6 15.7504 15.9397
      vertex -22 9.96979 16.1805
    endloop
  endfacet
  facet normal -0 0.0416226 0.999133
    outer loop
      vertex -24.6 15.7504 15.9397
      vertex -19.364 12.6058 16.0707
      vertex -12.3 15.7504 15.9397
    endloop
  endfacet
  facet normal -0.000116108 0.0416298 0.999133
    outer loop
      vertex -12.3 15.7504 15.9397
      vertex -13 6.24187 16.3358
      vertex -12.3 -75.2209 19.7301
    endloop
  endfacet
  facet normal 2.42094e-05 0.041631 0.999133
    outer loop
      vertex -15.636 3.60583 16.4457
      vertex -12.3 -75.2209 19.7301
      vertex -13 6.24187 16.3358
    endloop
  endfacet
  facet normal -0 0.0416299 0.999133
    outer loop
      vertex -19.364 3.60583 16.4457
      vertex -12.3 -75.2209 19.7301
      vertex -15.636 3.60583 16.4457
    endloop
  endfacet
  facet normal -2.36622e-05 0.0416315 0.999133
    outer loop
      vertex -24.6 -75.2209 19.7301
      vertex -19.364 3.60583 16.4457
      vertex -22 6.24187 16.3358
    endloop
  endfacet
  facet normal 3.12599e-05 0.0416298 0.999133
    outer loop
      vertex -24.6 -75.2209 19.7301
      vertex -22 6.24187 16.3358
      vertex -24.6 15.7504 15.9397
    endloop
  endfacet
  facet normal 0 0.0416299 0.999133
    outer loop
      vertex -19.364 3.60583 16.4457
      vertex -24.6 -75.2209 19.7301
      vertex -12.3 -75.2209 19.7301
    endloop
  endfacet
  facet normal 0 0.0416298 0.999133
    outer loop
      vertex -49.2 15.7504 15.9397
      vertex -59.3792 -75.2209 19.7301
      vertex -49.2 -75.2209 19.7301
    endloop
  endfacet
  facet normal 0 0.0416298 0.999133
    outer loop
      vertex -59.3792 -75.2209 19.7301
      vertex -49.2 15.7504 15.9397
      vertex -63.0085 15.7504 15.9397
    endloop
  endfacet
  facet normal -0.682778 0.0304164 0.729993
    outer loop
      vertex -24.6 15.7504 15.9397
      vertex -25.625 17.1711 14.9218
      vertex -25.625 -76.5848 18.8283
    endloop
  endfacet
  facet normal -0.682749 0.0304169 0.73002
    outer loop
      vertex -24.6 15.7504 15.9397
      vertex -25.625 -76.5848 18.8283
      vertex -24.6 -75.2209 19.7301
    endloop
  endfacet
  facet normal -0.682778 0.0304164 0.729993
    outer loop
      vertex 49.2 15.7504 15.9397
      vertex 48.175 17.1711 14.9218
      vertex 48.175 -76.5848 18.8283
    endloop
  endfacet
  facet normal -0.682749 0.0304169 0.73002
    outer loop
      vertex 49.2 15.7504 15.9397
      vertex 48.175 -76.5848 18.8283
      vertex 49.2 -75.2209 19.7301
    endloop
  endfacet
  facet normal 0 -0.551535 0.834152
    outer loop
      vertex 49.2 -75.2209 19.7301
      vertex 59.5832 -76.5848 18.8283
      vertex 59.3895 -75.2209 19.7301
    endloop
  endfacet
  facet normal 0 -0.551535 0.834152
    outer loop
      vertex 59.5832 -76.5848 18.8283
      vertex 49.2 -75.2209 19.7301
      vertex 48.175 -76.5848 18.8283
    endloop
  endfacet
  facet normal 0.639897 -0.659528 0.394404
    outer loop
      vertex 60.6786 -75.5479 18.785
      vertex 59.5832 -76.5848 18.8283
      vertex 60.261 -77.4878 16.2186
    endloop
  endfacet
  facet normal 0.639919 -0.659515 0.39439
    outer loop
      vertex 60.6786 -75.5479 18.785
      vertex 60.261 -77.4878 16.2186
      vertex 61.3455 -76.4363 16.2173
    endloop
  endfacet
  facet normal 0.639921 -0.659516 0.394386
    outer loop
      vertex 61.3455 -76.4363 16.2173
      vertex 60.261 -77.4878 16.2186
      vertex 64.2399 -82.7884 0.89856
    endloop
  endfacet
  facet normal 0.639898 -0.659535 0.39439
    outer loop
      vertex 65.3183 -81.7289 0.920649
      vertex 61.3455 -76.4363 16.2173
      vertex 64.2399 -82.7884 0.89856
    endloop
  endfacet
  facet normal 0.682778 0.0304158 0.729992
    outer loop
      vertex -48.175 17.1711 14.9218
      vertex -49.2 15.7504 15.9397
      vertex -49.2 -75.2209 19.7301
    endloop
  endfacet
  facet normal 0.682749 0.0304175 0.730019
    outer loop
      vertex -48.175 17.1711 14.9218
      vertex -49.2 -75.2209 19.7301
      vertex -48.175 -76.5848 18.8283
    endloop
  endfacet
  facet normal 0 -0.551535 0.834152
    outer loop
      vertex -59.5832 -76.5848 18.8283
      vertex -49.2 -75.2209 19.7301
      vertex -59.3792 -75.2209 19.7301
    endloop
  endfacet
  facet normal 0 -0.551535 0.834152
    outer loop
      vertex -49.2 -75.2209 19.7301
      vertex -59.5832 -76.5848 18.8283
      vertex -48.175 -76.5848 18.8283
    endloop
  endfacet
  facet normal 0 -0.551535 0.834152
    outer loop
      vertex -24.6 -75.2209 19.7301
      vertex -11.275 -76.5848 18.8283
      vertex -12.3 -75.2209 19.7301
    endloop
  endfacet
  facet normal 0 -0.551535 0.834152
    outer loop
      vertex -11.275 -76.5848 18.8283
      vertex -24.6 -75.2209 19.7301
      vertex -25.625 -76.5848 18.8283
    endloop
  endfacet
  facet normal 1 -0 0
    outer loop
      vertex -11.275 -76.9406 17.8
      vertex -11.275 17.1711 14.9218
      vertex -11.275 -76.5848 18.8283
    endloop
  endfacet
  facet normal 1 0 0
    outer loop
      vertex -11.275 17.1711 14.9218
      vertex -11.275 -76.9406 17.8
      vertex -11.275 18.717 13.8143
    endloop
  endfacet
  facet normal 0.682778 0.0304158 0.729992
    outer loop
      vertex -11.275 17.1711 14.9218
      vertex -12.3 15.7504 15.9397
      vertex -12.3 -75.2209 19.7301
    endloop
  endfacet
  facet normal 0.682749 0.0304175 0.730019
    outer loop
      vertex -11.275 17.1711 14.9218
      vertex -12.3 -75.2209 19.7301
      vertex -11.275 -76.5848 18.8283
    endloop
  endfacet
  facet normal -0.682778 0.0304164 0.729993
    outer loop
      vertex 12.3 15.7504 15.9397
      vertex 11.275 17.1711 14.9218
      vertex 11.275 -76.5848 18.8283
    endloop
  endfacet
  facet normal -0.682749 0.0304169 0.73002
    outer loop
      vertex 12.3 15.7504 15.9397
      vertex 11.275 -76.5848 18.8283
      vertex 12.3 -75.2209 19.7301
    endloop
  endfacet
  facet normal 0 -0.551535 0.834152
    outer loop
      vertex 12.3 -75.2209 19.7301
      vertex 25.625 -76.5848 18.8283
      vertex 24.6 -75.2209 19.7301
    endloop
  endfacet
  facet normal 0 -0.551535 0.834152
    outer loop
      vertex 25.625 -76.5848 18.8283
      vertex 12.3 -75.2209 19.7301
      vertex 11.275 -76.5848 18.8283
    endloop
  endfacet
  facet normal 0.682778 0.0304158 0.729992
    outer loop
      vertex 25.625 17.1711 14.9218
      vertex 24.6 15.7504 15.9397
      vertex 24.6 -75.2209 19.7301
    endloop
  endfacet
  facet normal 0.682749 0.0304175 0.730019
    outer loop
      vertex 25.625 17.1711 14.9218
      vertex 24.6 -75.2209 19.7301
      vertex 25.625 -76.5848 18.8283
    endloop
  endfacet
  facet normal -0.589808 0.0101141 0.80748
    outer loop
      vertex -63.0085 15.7504 15.9397
      vertex -64.3777 17.1711 14.9218
      vertex -61.3542 -58.614 18.0795
    endloop
  endfacet
  facet normal -0.589805 0.0101142 0.807482
    outer loop
      vertex -59.3792 -75.2209 19.7301
      vertex -63.0085 15.7504 15.9397
      vertex -61.3542 -58.614 18.0795
    endloop
  endfacet
  facet normal -0.589798 0.0101155 0.807487
    outer loop
      vertex -59.3792 -75.2209 19.7301
      vertex -61.3542 -58.614 18.0795
      vertex -60.6786 -75.5479 18.7851
    endloop
  endfacet
  facet normal -0.4511 -0.444303 0.774018
    outer loop
      vertex -59.3792 -75.2209 19.7301
      vertex -60.6786 -75.5479 18.7851
      vertex -59.5832 -76.5848 18.8283
    endloop
  endfacet
  facet normal 0.452807 -0.446117 0.771975
    outer loop
      vertex 60.6786 -75.5479 18.785
      vertex 59.3895 -75.2209 19.7301
      vertex 59.5832 -76.5848 18.8283
    endloop
  endfacet
  facet normal 0.000347589 0.0416298 0.999133
    outer loop
      vertex 63.0214 15.7502 15.9349
      vertex 49.2 15.7504 15.9397
      vertex 49.2 -75.2209 19.7301
    endloop
  endfacet
  facet normal 0 0.0416825 0.999131
    outer loop
      vertex 63.0214 15.7502 15.9349
      vertex 49.2 -75.2209 19.7301
      vertex 59.3895 -75.2209 19.7301
    endloop
  endfacet
  facet normal 0.592873 0.00992372 0.805235
    outer loop
      vertex 63.0214 15.7502 15.9349
      vertex 59.3895 -75.2209 19.7301
      vertex 60.6786 -75.5479 18.785
    endloop
  endfacet
  facet normal 0.594781 0.00983082 0.803827
    outer loop
      vertex 63.0214 15.7502 15.9349
      vertex 60.6786 -75.5479 18.785
      vertex 64.3809 17.1857 14.9114
    endloop
  endfacet
  facet normal 0 0.582385 0.812913
    outer loop
      vertex 68.713 36.7144 0.920649
      vertex -68.713 36.7144 0.920649
      vertex -64.3777 17.1711 14.9218
    endloop
  endfacet
  facet normal -1.27959e-06 0.582391 0.812909
    outer loop
      vertex 68.713 36.7144 0.920649
      vertex -64.3777 17.1711 14.9218
      vertex -48.175 18.717 13.8143
    endloop
  endfacet
  facet normal -4.73328e-06 0.582414 0.812892
    outer loop
      vertex -48.175 18.717 13.8143
      vertex -64.3777 17.1711 14.9218
      vertex -63.0085 15.7504 15.9397
    endloop
  endfacet
  facet normal 0 0.582399 0.812903
    outer loop
      vertex -48.175 18.717 13.8143
      vertex -63.0085 15.7504 15.9397
      vertex -49.2 15.7504 15.9397
    endloop
  endfacet
  facet normal 7.50866e-05 0.582382 0.812915
    outer loop
      vertex -48.175 18.717 13.8143
      vertex -49.2 15.7504 15.9397
      vertex -48.175 17.1711 14.9218
    endloop
  endfacet
  facet normal 0 0.582385 0.812913
    outer loop
      vertex 68.713 36.7144 0.920649
      vertex -48.175 18.717 13.8143
      vertex -25.625 18.717 13.8143
    endloop
  endfacet
  facet normal 9.73137e-07 0.582382 0.812915
    outer loop
      vertex 68.713 36.7144 0.920649
      vertex -25.625 18.717 13.8143
      vertex -25.625 17.1711 14.9218
    endloop
  endfacet
  facet normal -8.91653e-06 0.582413 0.812893
    outer loop
      vertex 68.713 36.7144 0.920649
      vertex -25.625 17.1711 14.9218
      vertex -24.6 15.7504 15.9397
    endloop
  endfacet
  facet normal 0.000441574 0.581087 0.813841
    outer loop
      vertex 68.713 36.7144 0.920649
      vertex -24.6 15.7504 15.9397
      vertex -11.275 18.717 13.8143
    endloop
  endfacet
  facet normal 0 0.582399 0.812903
    outer loop
      vertex -11.275 18.717 13.8143
      vertex -24.6 15.7504 15.9397
      vertex -12.3 15.7504 15.9397
    endloop
  endfacet
  facet normal 7.50866e-05 0.582382 0.812915
    outer loop
      vertex -11.275 18.717 13.8143
      vertex -12.3 15.7504 15.9397
      vertex -11.275 17.1711 14.9218
    endloop
  endfacet
  facet normal 0 0.582385 0.812913
    outer loop
      vertex 68.713 36.7144 0.920649
      vertex -11.275 18.717 13.8143
      vertex 11.275 18.717 13.8143
    endloop
  endfacet
  facet normal 1.59831e-06 0.582382 0.812915
    outer loop
      vertex 68.713 36.7144 0.920649
      vertex 11.275 18.717 13.8143
      vertex 11.275 17.1711 14.9218
    endloop
  endfacet
  facet normal -1.35158e-05 0.582411 0.812894
    outer loop
      vertex 68.713 36.7144 0.920649
      vertex 11.275 17.1711 14.9218
      vertex 12.3 15.7504 15.9397
    endloop
  endfacet
  facet normal 9.93669e-06 0.582369 0.812924
    outer loop
      vertex 68.713 36.7144 0.920649
      vertex 12.3 15.7504 15.9397
      vertex 25.625 18.717 13.8143
    endloop
  endfacet
  facet normal 0 0.582399 0.812903
    outer loop
      vertex 25.625 18.717 13.8143
      vertex 12.3 15.7504 15.9397
      vertex 24.6 15.7504 15.9397
    endloop
  endfacet
  facet normal 0 0.582385 0.812913
    outer loop
      vertex 68.713 36.7144 0.920649
      vertex 25.625 18.717 13.8143
      vertex 48.175 18.717 13.8143
    endloop
  endfacet
  facet normal 4.46995e-06 0.582382 0.812915
    outer loop
      vertex 68.713 36.7144 0.920649
      vertex 48.175 18.717 13.8143
      vertex 48.175 17.1711 14.9218
    endloop
  endfacet
  facet normal -2.79144e-05 0.582404 0.812899
    outer loop
      vertex 68.713 36.7144 0.920649
      vertex 48.175 17.1711 14.9218
      vertex 49.2 15.7504 15.9397
    endloop
  endfacet
  facet normal 0.000290783 0.582208 0.81304
    outer loop
      vertex 68.713 36.7144 0.920649
      vertex 49.2 15.7504 15.9397
      vertex 63.0214 15.7502 15.9349
    endloop
  endfacet
  facet normal -0.00384055 0.582945 0.812503
    outer loop
      vertex 68.713 36.7144 0.920649
      vertex 63.0214 15.7502 15.9349
      vertex 64.3809 17.1857 14.9114
    endloop
  endfacet
  facet normal 7.50866e-05 0.582382 0.812915
    outer loop
      vertex 25.625 18.717 13.8143
      vertex 24.6 15.7504 15.9397
      vertex 25.625 17.1711 14.9218
    endloop
  endfacet
  facet normal 0 -0.945029 0.326987
    outer loop
      vertex 59.5832 -76.5848 18.8283
      vertex 48.175 -76.5848 18.8283
      vertex 48.175 -76.9406 17.8
    endloop
  endfacet
  facet normal -7.33219e-07 -0.945026 0.326995
    outer loop
      vertex 59.5832 -76.5848 18.8283
      vertex 48.175 -76.9406 17.8
      vertex 60.261 -77.4878 16.2186
    endloop
  endfacet
  facet normal 0 0 0
    outer loop
      vertex -48.175 -76.9406 17.8
      vertex -11.275 -76.9406 17.8
      vertex -25.625 -76.9406 17.8
    endloop
  endfacet
  facet normal 0 -0.945024 0.327
    outer loop
      vertex 60.261 -77.4878 16.2186
      vertex -11.275 -76.9406 17.8
      vertex -48.175 -76.9406 17.8
    endloop
  endfacet
  facet normal 0 -0.945024 0.327
    outer loop
      vertex -11.275 -76.9406 17.8
      vertex 60.261 -77.4878 16.2186
      vertex 11.275 -76.9406 17.8
    endloop
  endfacet
  facet normal 0 -0.945024 0.327
    outer loop
      vertex 11.275 -76.9406 17.8
      vertex 60.261 -77.4878 16.2186
      vertex 25.625 -76.9406 17.8
    endloop
  endfacet
  facet normal 0 -0.945024 0.327
    outer loop
      vertex 25.625 -76.9406 17.8
      vertex 60.261 -77.4878 16.2186
      vertex 48.175 -76.9406 17.8
    endloop
  endfacet
  facet normal 0 -0.945029 0.326987
    outer loop
      vertex -48.175 -76.5848 18.8283
      vertex -59.5832 -76.5848 18.8283
      vertex -48.175 -76.9406 17.8
    endloop
  endfacet
  facet normal -1.08172e-06 -0.945032 0.326977
    outer loop
      vertex -59.5832 -76.5848 18.8283
      vertex -64.2399 -82.7884 0.89856
      vertex -48.175 -76.9406 17.8
    endloop
  endfacet
  facet normal -3.8503e-07 -0.945033 0.326976
    outer loop
      vertex -48.175 -76.9406 17.8
      vertex -64.2399 -82.7884 0.89856
      vertex 60.261 -77.4878 16.2186
    endloop
  endfacet
  facet normal 0 -0.945034 0.326973
    outer loop
      vertex 60.261 -77.4878 16.2186
      vertex -64.2399 -82.7884 0.89856
      vertex 64.2399 -82.7884 0.89856
    endloop
  endfacet
  facet normal 0 -0.945029 0.326987
    outer loop
      vertex -25.625 -76.9406 17.8
      vertex -11.275 -76.5848 18.8283
      vertex -25.625 -76.5848 18.8283
    endloop
  endfacet
  facet normal 0 -0.945029 0.326987
    outer loop
      vertex -11.275 -76.5848 18.8283
      vertex -25.625 -76.9406 17.8
      vertex -11.275 -76.9406 17.8
    endloop
  endfacet
  facet normal 0 -0.945029 0.326987
    outer loop
      vertex 11.275 -76.9406 17.8
      vertex 25.625 -76.5848 18.8283
      vertex 11.275 -76.5848 18.8283
    endloop
  endfacet
  facet normal 0 -0.945029 0.326987
    outer loop
      vertex 25.625 -76.5848 18.8283
      vertex 11.275 -76.9406 17.8
      vertex 25.625 -76.9406 17.8
    endloop
  endfacet
  facet normal 0 0.829964 -0.557817
    outer loop
      vertex 67.9297 36.0644 -0.0464725
      vertex -68.713 36.7144 0.920649
      vertex 68.713 36.7144 0.920649
    endloop
  endfacet
  facet normal 0 0.829964 -0.557817
    outer loop
      vertex -68.713 36.7144 0.920649
      vertex 67.9297 36.0644 -0.0464725
      vertex -67.9297 36.0644 -0.0464725
    endloop
  endfacet
  facet normal -0.784229 -0.0224768 -0.620064
    outer loop
      vertex -65.3183 -81.7289 0.920649
      vertex -68.713 36.7144 0.920649
      vertex -67.9297 36.0644 -0.0464725
    endloop
  endfacet
  facet normal -0.784248 -0.022477 -0.62004
    outer loop
      vertex -65.3183 -81.7289 0.920649
      vertex -67.9297 36.0644 -0.0464725
      vertex -64.5426 -82.1154 -0.0464725
    endloop
  endfacet
  facet normal -0.639881 -0.659551 0.394391
    outer loop
      vertex -60.6786 -75.5479 18.7851
      vertex -64.2399 -82.7884 0.89856
      vertex -59.5832 -76.5848 18.8283
    endloop
  endfacet
  facet normal -0.639834 -0.659593 0.394398
    outer loop
      vertex -60.9137 -75.8611 17.8799
      vertex -64.2399 -82.7884 0.89856
      vertex -60.6786 -75.5479 18.7851
    endloop
  endfacet
  facet normal -0.63991 -0.659527 0.394386
    outer loop
      vertex -62.2849 -77.6878 12.6003
      vertex -64.2399 -82.7884 0.89856
      vertex -60.9137 -75.8611 17.8799
    endloop
  endfacet
  facet normal -0.639899 -0.659536 0.394388
    outer loop
      vertex -62.2849 -77.6878 12.6003
      vertex -65.3183 -81.7289 0.920649
      vertex -64.2399 -82.7884 0.89856
    endloop
  endfacet
  facet normal 0 0 -1
    outer loop
      vertex 64.5426 -82.1154 -0.0464725
      vertex 18.6391 5.35583 -0.0464725
      vertex 20.25 6.96674 -0.0464725
    endloop
  endfacet
  facet normal 0 0 -1
    outer loop
      vertex 64.5426 -82.1154 -0.0464725
      vertex 16.3609 5.35583 -0.0464725
      vertex 18.6391 5.35583 -0.0464725
    endloop
  endfacet
  facet normal 0 0 -1
    outer loop
      vertex -16.3609 5.35583 -0.0464725
      vertex 16.3609 5.35583 -0.0464725
      vertex 64.5426 -82.1154 -0.0464725
    endloop
  endfacet
  facet normal 0 0 -1
    outer loop
      vertex 14.75 6.96674 -0.0464725
      vertex -14.75 6.96674 -0.0464725
      vertex 14.75 9.24492 -0.0464725
    endloop
  endfacet
  facet normal 0 0 -1
    outer loop
      vertex 16.3609 5.35583 -0.0464725
      vertex -16.3609 5.35583 -0.0464725
      vertex 14.75 6.96674 -0.0464725
    endloop
  endfacet
  facet normal -0 0 -1
    outer loop
      vertex 14.75 6.96674 -0.0464725
      vertex -16.3609 5.35583 -0.0464725
      vertex -14.75 6.96674 -0.0464725
    endloop
  endfacet
  facet normal 0 0 -1
    outer loop
      vertex -64.5426 -82.1154 -0.0464725
      vertex -16.3609 5.35583 -0.0464725
      vertex 64.5426 -82.1154 -0.0464725
    endloop
  endfacet
  facet normal -0 0 -1
    outer loop
      vertex -16.3609 5.35583 -0.0464725
      vertex -64.5426 -82.1154 -0.0464725
      vertex -18.6391 5.35583 -0.0464725
    endloop
  endfacet
  facet normal 0 0 -1
    outer loop
      vertex -67.9297 36.0644 -0.0464725
      vertex -20.25 6.96674 -0.0464725
      vertex -64.5426 -82.1154 -0.0464725
    endloop
  endfacet
  facet normal -0 0 -1
    outer loop
      vertex -18.6391 5.35583 -0.0464725
      vertex -64.5426 -82.1154 -0.0464725
      vertex -20.25 6.96674 -0.0464725
    endloop
  endfacet
  facet normal 0 0 -1
    outer loop
      vertex 20.25 6.96674 -0.0464725
      vertex 67.9297 36.0644 -0.0464725
      vertex 64.5426 -82.1154 -0.0464725
    endloop
  endfacet
  facet normal 0 0 -1
    outer loop
      vertex 20.25 9.24492 -0.0464725
      vertex 67.9297 36.0644 -0.0464725
      vertex 20.25 6.96674 -0.0464725
    endloop
  endfacet
  facet normal 0 0 -1
    outer loop
      vertex 18.6391 10.8558 -0.0464725
      vertex 67.9297 36.0644 -0.0464725
      vertex 20.25 9.24492 -0.0464725
    endloop
  endfacet
  facet normal 0 0 -1
    outer loop
      vertex 16.3609 10.8558 -0.0464725
      vertex 67.9297 36.0644 -0.0464725
      vertex 18.6391 10.8558 -0.0464725
    endloop
  endfacet
  facet normal 0 0 -1
    outer loop
      vertex -14.75 9.24492 -0.0464725
      vertex 14.75 9.24492 -0.0464725
      vertex -14.75 6.96674 -0.0464725
    endloop
  endfacet
  facet normal 0 0 -1
    outer loop
      vertex 14.75 9.24492 -0.0464725
      vertex -14.75 9.24492 -0.0464725
      vertex 16.3609 10.8558 -0.0464725
    endloop
  endfacet
  facet normal 0 0 -1
    outer loop
      vertex -16.3609 10.8558 -0.0464725
      vertex 16.3609 10.8558 -0.0464725
      vertex -14.75 9.24492 -0.0464725
    endloop
  endfacet
  facet normal 0 0 -1
    outer loop
      vertex 16.3609 10.8558 -0.0464725
      vertex -16.3609 10.8558 -0.0464725
      vertex 67.9297 36.0644 -0.0464725
    endloop
  endfacet
  facet normal 0 0 -1
    outer loop
      vertex -67.9297 36.0644 -0.0464725
      vertex -16.3609 10.8558 -0.0464725
      vertex -18.6391 10.8558 -0.0464725
    endloop
  endfacet
  facet normal 0 0 -1
    outer loop
      vertex -16.3609 10.8558 -0.0464725
      vertex -67.9297 36.0644 -0.0464725
      vertex 67.9297 36.0644 -0.0464725
    endloop
  endfacet
  facet normal 0 0 -1
    outer loop
      vertex -20.25 9.24492 -0.0464725
      vertex -67.9297 36.0644 -0.0464725
      vertex -18.6391 10.8558 -0.0464725
    endloop
  endfacet
  facet normal 0 0 -1
    outer loop
      vertex -20.25 6.96674 -0.0464725
      vertex -67.9297 36.0644 -0.0464725
      vertex -20.25 9.24492 -0.0464725
    endloop
  endfacet
  facet normal 0.677589 -0.684045 -0.270103
    outer loop
      vertex 65.3183 -81.7289 0.920649
      vertex 64.2399 -82.7884 0.89856
      vertex 64.5426 -82.1154 -0.0464725
    endloop
  endfacet
  facet normal -0.677589 -0.684045 -0.270103
    outer loop
      vertex -64.2399 -82.7884 0.89856
      vertex -65.3183 -81.7289 0.920649
      vertex -64.5426 -82.1154 -0.0464725
    endloop
  endfacet
  facet normal 0 -0.814557 -0.580083
    outer loop
      vertex -64.5426 -82.1154 -0.0464725
      vertex 64.2399 -82.7884 0.89856
      vertex -64.2399 -82.7884 0.89856
    endloop
  endfacet
  facet normal 0 -0.814557 -0.580083
    outer loop
      vertex 64.2399 -82.7884 0.89856
      vertex -64.5426 -82.1154 -0.0464725
      vertex 64.5426 -82.1154 -0.0464725
    endloop
  endfacet
  facet normal 0.965148 -0.0276621 0.260237
    outer loop
      vertex 68.713 36.7144 0.920649
      vertex 64.3809 17.1857 14.9114
      vertex 65.3183 -81.7289 0.920649
    endloop
  endfacet
  facet normal 0.965148 -0.0276622 0.260238
    outer loop
      vertex 64.3809 17.1857 14.9114
      vertex 60.6786 -75.5479 18.785
      vertex 65.3183 -81.7289 0.920649
    endloop
  endfacet
  facet normal -0.525935 0.752253 -0.396872
    outer loop
      vertex 65.3183 -81.7289 0.920649
      vertex 60.6786 -75.5479 18.785
      vertex 61.3455 -76.4363 16.2173
    endloop
  endfacet
  facet normal 0.784229 -0.0224768 -0.620064
    outer loop
      vertex 68.713 36.7144 0.920649
      vertex 65.3183 -81.7289 0.920649
      vertex 67.9297 36.0644 -0.0464725
    endloop
  endfacet
  facet normal 0.784248 -0.022477 -0.62004
    outer loop
      vertex 65.3183 -81.7289 0.920649
      vertex 64.5426 -82.1154 -0.0464725
      vertex 67.9297 36.0644 -0.0464725
    endloop
  endfacet
  facet normal -0.965149 -0.0276621 0.260236
    outer loop
      vertex -64.3777 17.1711 14.9218
      vertex -68.713 36.7144 0.920649
      vertex -65.3183 -81.7289 0.920649
    endloop
  endfacet
  facet normal -0.965149 -0.0276622 0.260236
    outer loop
      vertex -64.3777 17.1711 14.9218
      vertex -65.3183 -81.7289 0.920649
      vertex -61.3542 -58.614 18.0795
    endloop
  endfacet
  facet normal -0.965149 -0.0276621 0.260236
    outer loop
      vertex -61.3542 -58.614 18.0795
      vertex -65.3183 -81.7289 0.920649
      vertex -62.2849 -77.6878 12.6003
    endloop
  endfacet
  facet normal -0.965149 -0.0276621 0.260236
    outer loop
      vertex -61.3542 -58.614 18.0795
      vertex -62.2849 -77.6878 12.6003
      vertex -60.9137 -75.8611 17.8799
    endloop
  endfacet
  facet normal -0.965147 -0.0276621 0.260241
    outer loop
      vertex -60.6786 -75.5479 18.7851
      vertex -61.3542 -58.614 18.0795
      vertex -60.9137 -75.8611 17.8799
    endloop
  endfacet
endsolid OpenSCAD_Model
